{
  "invalidateSessionsResponse": {
    "result": [
      {
        "errors": [
          {
            "extendedErrorDetails": [
              {
                "extendedErrorCode": "SOBJECT_ELEMENT_MISMATCHED_OBJECTTYPE"
              },
              {
                "extendedErrorCode": "ELEMENT_NEVER_USED"
              },
              {
                "extendedErrorCode": "FIELD_RELATIONSHIP_NOT_SUPPORTED"
              },
              {
                "extendedErrorCode": "CONDITION_BUILDER_MISSING_REQUIRED_PERMISSIONS"
              },
              {
                "extendedErrorCode": "FLOW_INTERVIEW_MISSING_CHOICE_FOR_REQUIRED_CHOICE_FIELD"
              },
              {
                "extendedErrorCode": "FLEXIPAGE_COMPONENT_CUSTOM_VALIDATION_EXCEPTION"
              },
              {
                "extendedErrorCode": "SUBFLOW_OUTPUT_MISSING_NAME"
              },
              {
                "extendedErrorCode": "INPUTPARAM_MISMATCHED_OBJECTTYPE"
              }
            ],
            "fields": [
              "string",
              "string",
              "string",
              "string",
              "string",
              "string",
              "string",
              "string",
              "string"
            ],
            "message": "string",
            "statusCode": "INVALID_SIGNUP_OPTION"
          },
          {
            "extendedErrorDetails": [
              {
                "extendedErrorCode": "ASSIGNMENTITEM_INVALID_MERGE_FIELD"
              },
              {
                "extendedErrorCode": "ELEMENT_MISSING_LABEL"
              },
              {
                "extendedErrorCode": "SUBFLOW_INPUT_MISSING_NAME"
              },
              {
                "extendedErrorCode": "ASSIGNMENTITEM_REQUIRED"
              },
              {
                "extendedErrorCode": "ACTIONCALL_NOT_FOUND_WITH_NAME_AND_TYPE"
              }
            ],
            "fields": [
              "string",
              "string",
              "string",
              "string",
              "string",
              "string",
              "string",
              "string",
              "string",
              "string"
            ],
            "message": "string",
            "statusCode": "FLOW_EXCEPTION"
          },
          {
            "extendedErrorDetails": [
              {
                "extendedErrorCode": "VISIBILITY_RULE_EXCEEDS_CONDITION_LIMIT"
              },
              {
                "extendedErrorCode": "CONDITION_RIGHTOPERAND_NULL"
              },
              {
                "extendedErrorCode": "CHOICE_USED_MULTIPLE_TIMES_IN_SAME_FIELD"
              },
              {
                "extendedErrorCode": "APEXCLASS_MISSING_INTERFACE"
              },
              {
                "extendedErrorCode": "UNEXPECTED_ERROR"
              },
              {
                "extendedErrorCode": "CONDITION_MISSING_OPERATOR"
              },
              {
                "extendedErrorCode": "EXTERNAL_OBJECT_FIELDS_NOT_SUPPORTED"
              },
              {
                "extendedErrorCode": "VISIBILITY_RULE_NO_CONDITIONS"
              },
              {
                "extendedErrorCode": "PROCESSMETADATAVALUE_NONEXISTENT_ELEMENT"
              },
              {
                "extendedErrorCode": "FLOW_INTERVIEW_INPUT_VALIDATION"
              }
            ],
            "fields": [
              "string",
              "string",
              "string",
              "string",
              "string",
              "string"
            ],
            "message": "string",
            "statusCode": "MAX_RULES_EXCEEDED"
          },
          {
            "extendedErrorDetails": [
              {
                "extendedErrorCode": "ASSIGNMENTITEM_FIELD_INVALID_DATATYPE_WITH_ELEMENT"
              },
              {
                "extendedErrorCode": "EX_AUTOLAUNCHED_SUBFLOW_INCOMPATIBLE_FLOWTYPE"
              },
              {
                "extendedErrorCode": "RECOMMENDATION_STRATEGY_EXCEPTION"
              },
              {
                "extendedErrorCode": "START_ELEMENT_MISSING"
              },
              {
                "extendedErrorCode": "SURVEY_VARIABLE_ACCESS_INVALID"
              },
              {
                "extendedErrorCode": "ACTIONCALL_NOT_SUPPORTED_FOR_PROCESSTYPE"
              }
            ],
            "fields": [
              "string",
              "string",
              "string",
              "string",
              "string",
              "string",
              "string",
              "string",
              "string"
            ],
            "message": "string",
            "statusCode": "NO_SUCH_USER_EXISTS"
          },
          {
            "extendedErrorDetails": [
              {
                "extendedErrorCode": "OBJECT_TYPE_DOES_NOT_EXIST"
              },
              {
                "extendedErrorCode": "SCREENFIELD_BOOLEAN_ISREQUIRED_IS_FALSE"
              },
              {
                "extendedErrorCode": "SUBFLOW_INPUT_MISMATCHED_COLLECTIONTYPES"
              }
            ],
            "fields": [
              "string",
              "string"
            ],
            "message": "string",
            "statusCode": "EXCHANGE_WEB_SERVICES_URL_INVALID"
          },
          {
            "extendedErrorDetails": [
              {
                "extendedErrorCode": "SUBFLOW_DESKTOP_DESIGNER_FLOWS_NOT_SUPPORTED"
              },
              {
                "extendedErrorCode": "OUTPUTPARAM_MISSING_ASSIGNTOREFERENCE"
              },
              {
                "extendedErrorCode": "CONDITION_OPERAND_DATATYPES_INCOMPATIBLE"
              },
              {
                "extendedErrorCode": "BOTH_START_NODE_AND_REFERENCE_FOUND"
              }
            ],
            "fields": [
              "string",
              "string",
              "string",
              "string",
              "string",
              "string",
              "string",
              "string",
              "string",
              "string"
            ],
            "message": "string",
            "statusCode": "INVALID_MARKUP"
          }
        ],
        "success": false
      },
      {
        "errors": [
          {
            "extendedErrorDetails": [
              {
                "extendedErrorCode": "ELEMENT_MORE_THAN_ONE_FIELD"
              },
              {
                "extendedErrorCode": "SORT_FIELD_MISSING"
              },
              {
                "extendedErrorCode": "AUTOLAUNCHED_CHOICELOOKUP_NOT_SUPPORTED"
              },
              {
                "extendedErrorCode": "WORKFLOW_OBJECTTYPE_NOT_SUPPORTED"
              },
              {
                "extendedErrorCode": "FIELD_NOT_FOUND"
              },
              {
                "extendedErrorCode": "SORT_GEOLOCATION_FIELDS_NOT_SUPPORTED"
              },
              {
                "extendedErrorCode": "FIELDASSIGNMENT_MULTIPLE_REFERENCES_SAME_FIELD"
              },
              {
                "extendedErrorCode": "WAITEVENT_TYPE_INVALID_OR_NOT_SUPPORTED"
              },
              {
                "extendedErrorCode": "SUBFLOW_OUTPUT_INCOMPATIBLE_DATATYPES"
              },
              {
                "extendedErrorCode": "FLOW_INTERVIEW_MISSING_CHOICE_FOR_REQUIRED_CHOICE_FIELD"
              }
            ],
            "fields": [
              "string",
              "string"
            ],
            "message": "string",
            "statusCode": "MAXIMUM_HIERARCHY_LEVELS_REACHED"
          },
          {
            "extendedErrorDetails": [
              {
                "extendedErrorCode": "FORMULA_CMT_LIMIT_EXCEEDED"
              },
              {
                "extendedErrorCode": "SCREENFIELD_EXTENSION_DUPLICATE_OUTPUT_PARAM"
              },
              {
                "extendedErrorCode": "FLOW_INTERVIEW_MISSING_VALUE_FOR_REQUIRED_INPUT_FIELD"
              },
              {
                "extendedErrorCode": "FLOW_INCLUDES_STEP"
              },
              {
                "extendedErrorCode": "FORMULA_CMT_LIMIT_EXCEEDED"
              },
              {
                "extendedErrorCode": "ASSIGNMENTITEM_NONEXISTENT_REFERENCE"
              },
              {
                "extendedErrorCode": "SURVEY_RULE_INVALID_RIGHT_OPERAND"
              },
              {
                "extendedErrorCode": "SCREENRULE_MISSING_ACTION"
              },
              {
                "extendedErrorCode": "BOTH_START_NODE_AND_REFERENCE_FOUND"
              }
            ],
            "fields": [
              "string",
              "string",
              "string"
            ],
            "message": "string",
            "statusCode": "FILE_EXTENSION_NOT_ALLOWED"
          },
          {
            "extendedErrorDetails": [
              {
                "extendedErrorCode": "WORKFLOW_OBJECTVARIABLE_DOESNT_SUPPORT_INPUT"
              },
              {
                "extendedErrorCode": "VARIABLE_FIELD_NOT_SUPPORTED_FOR_DATATYPE"
              },
              {
                "extendedErrorCode": "FLOW_INTERVIEW_MISSING_VALUE_FOR_REQUIRED_INPUT_FIELD"
              },
              {
                "extendedErrorCode": "WAITEVENT_MISSING_CONNECTOR"
              }
            ],
            "fields": [
              "string",
              "string",
              "string"
            ],
            "message": "string",
            "statusCode": "INVALID_PERSON_ACCOUNT_OPERATION"
          },
          {
            "extendedErrorDetails": [
              {
                "extendedErrorCode": "ELEMENT_NEVER_USED"
              },
              {
                "extendedErrorCode": "ELEMENT_MISSING_NAME"
              },
              {
                "extendedErrorCode": "FIELDASSIGNMENT_MULTIPLE_REFERENCES_SAME_FIELD"
              },
              {
                "extendedErrorCode": "PROCESSTYPE_SCREEN_FIELDTYPE_NOT_SUPPORTED"
              },
              {
                "extendedErrorCode": "SURVEY_SCREENFIELD_TYPE_NOT_SUPPORTED_FOR_QUESTION"
              },
              {
                "extendedErrorCode": "WAITEVENT_OBJECT_NOT_SUPPORTED_FOR_EVENTTYPE"
              }
            ],
            "fields": [
              "string",
              "string",
              "string"
            ],
            "message": "string",
            "statusCode": "EXCEEDED_MAX_SEMIJOIN_SUBSELECTS_WRITE"
          },
          {
            "extendedErrorDetails": [
              {
                "extendedErrorCode": "WAITEVENT_MISSING_CONNECTOR"
              }
            ],
            "fields": [
              "string",
              "string",
              "string",
              "string",
              "string",
              "string"
            ],
            "message": "string",
            "statusCode": "PA_NO_ACCESS_EXCEPTION"
          },
          {
            "extendedErrorDetails": [
              {
                "extendedErrorCode": "RECORDFILTER_MULTIPLE_QUERIES_SAME_FIELD"
              }
            ],
            "fields": [
              "string",
              "string"
            ],
            "message": "string",
            "statusCode": "CANNOT_DELETE_LAST_DATED_CONVERSION_RATE"
          },
          {
            "extendedErrorDetails": [
              {
                "extendedErrorCode": "TRIGGER_TYPE_INCOMPATIBLE_WITH_PROCESS_TYPE"
              },
              {
                "extendedErrorCode": "DECISION_DEFAULT_CONNECTOR_MISSING_LABEL"
              }
            ],
            "fields": [
              "string",
              "string",
              "string",
              "string",
              "string",
              "string"
            ],
            "message": "string",
            "statusCode": "FAILED_ACTIVATION"
          }
        ],
        "success": false
      },
      {
        "errors": [
          {
            "extendedErrorDetails": [
              {
                "extendedErrorCode": "APEXCALLOUT_OUTPUT_NOT_FOUND"
              },
              {
                "extendedErrorCode": "FIELD_INVALID_VALUE"
              },
              {
                "extendedErrorCode": "FLOW_INTERVIEW_INVALID_CHOICE_USER_INPUT"
              },
              {
                "extendedErrorCode": "WORKFLOW_TRIGGERTYPE_INVALID_VALUE"
              },
              {
                "extendedErrorCode": "INVALID_FLOW_INTERVIEW"
              },
              {
                "extendedErrorCode": "CONDITION_LOGIC_EXCEEDS_LIMIT"
              },
              {
                "extendedErrorCode": "WORKFLOW_OBJECTVARIABLE_AND_OLDOBJECTVARIABLE_REFERENCE_SAME_SOBJECT_VARIABLE"
              },
              {
                "extendedErrorCode": "SUBFLOW_INPUT_REFERENCES_FIELD_ON_SOBJECT_VARIABLE"
              },
              {
                "extendedErrorCode": "SCREENFIELD_BOOLEAN_ISREQUIRED_IS_FALSE"
              }
            ],
            "fields": [
              "string",
              "string",
              "string"
            ],
            "message": "string",
            "statusCode": "CONFLICTING_ENVIRONMENT_HUB_MEMBER"
          },
          {
            "extendedErrorDetails": [
              {
                "extendedErrorCode": "RECORDFILTER_ENCRYPTED_FIELDS_NOT_SUPPORTED"
              },
              {
                "extendedErrorCode": "SCREENFIELD_EXTENSION_IMPLEMENTATION_INVALID"
              }
            ],
            "fields": [
              "string",
              "string",
              "string",
              "string",
              "string"
            ],
            "message": "string",
            "statusCode": "RELATED_ENTITY_FILTER_VALIDATION_EXCEPTION"
          },
          {
            "extendedErrorDetails": [
              {
                "extendedErrorCode": "FLOW_INTERVIEW_SET_CHOICE_SELECTED"
              },
              {
                "extendedErrorCode": "SCREEN_MISSING_LABEL"
              },
              {
                "extendedErrorCode": "FLOW_INTERVIEW_INVALID_FIELD_VALUE"
              },
              {
                "extendedErrorCode": "CONDITION_REFERENCED_ELEMENT_NOT_FOUND"
              },
              {
                "extendedErrorCode": "FLOW_INTERVIEW_INVALID_START_REQUEST"
              },
              {
                "extendedErrorCode": "FLOW_INTERVIEW_INVALID_CHOICE_USER_INPUT"
              },
              {
                "extendedErrorCode": "FLOW_INTERVIEW_MISSING_CHOICE_FOR_REQUIRED_CHOICE_FIELD"
              },
              {
                "extendedErrorCode": "SCREENFIELD_MULTISELECTCHOICE_SEMICOLON_NOT_SUPPORTED"
              }
            ],
            "fields": [
              "string",
              "string",
              "string",
              "string",
              "string",
              "string",
              "string",
              "string"
            ],
            "message": "string",
            "statusCode": "APEX_DATA_ACCESS_RESTRICTION"
          },
          {
            "extendedErrorDetails": [
              {
                "extendedErrorCode": "ASSIGNMENTITEM_FIELD_INVALID_DATATYPE"
              },
              {
                "extendedErrorCode": "APEXCALLOUT_MISSING_CLASSNAME"
              },
              {
                "extendedErrorCode": "RECORDFILTER_MULTIPLE_QUERIES_SAME_FIELD"
              },
              {
                "extendedErrorCode": "SCREENRULE_ACTION_INVALID_ATTRIBUTE"
              },
              {
                "extendedErrorCode": "ASSIGNMENTITEM_FIELD_INVALID_DATATYPE"
              },
              {
                "extendedErrorCode": "SCREENRULE_VISIBILITY_NOT_SUPPORTED_IN_ORG"
              }
            ],
            "fields": [
              "string",
              "string",
              "string",
              "string"
            ],
            "message": "string",
            "statusCode": "CANNOT_FREEZE_SELF"
          },
          {
            "extendedErrorDetails": [
              {
                "extendedErrorCode": "TYPE_MAPPING_DUPLICATED"
              },
              {
                "extendedErrorCode": "FLOW_STAGE_ORDER_DUPLICATE"
              },
              {
                "extendedErrorCode": "CUSTOMEVENT_OBJECTTYPE_NOT_FOUND"
              },
              {
                "extendedErrorCode": "TYPE_MAPPING_NOT_SUPPORTED_FOR_PROCESS_TYPE"
              },
              {
                "extendedErrorCode": "WAITEVENT_RELATIVEALARM_INVALID_OBJECTTYPE"
              },
              {
                "extendedErrorCode": "FIELDASSIGNMENT_FIELD_INCOMPATIBLE_DATATYPE"
              },
              {
                "extendedErrorCode": "CONDITION_BUILDER_MISSING_FLOW_VARIABLE"
              },
              {
                "extendedErrorCode": "VISIBILITY_RULE_NO_CONDITIONS"
              },
              {
                "extendedErrorCode": "VALUE_CHAR_LIMIT_EXCEEDED"
              },
              {
                "extendedErrorCode": "ASSIGNMENTITEM_INVALID_REFERENCE"
              }
            ],
            "fields": [
              "string",
              "string",
              "string",
              "string",
              "string",
              "string",
              "string",
              "string",
              "string"
            ],
            "message": "string",
            "statusCode": "INVALID_PROVIDER_TYPE"
          },
          {
            "extendedErrorDetails": [
              {
                "extendedErrorCode": "ACTIONCALL_NOT_SUPPORTED_FOR_PROCESSTYPE"
              },
              {
                "extendedErrorCode": "CONDITION_OPERAND_DATATYPES_INCOMPATIBLE"
              },
              {
                "extendedErrorCode": "FLOW_INTERVIEW_TYPE_CONVERSION"
              },
              {
                "extendedErrorCode": "WAITEVENT_RELATIVEALARM_INVALID_FIELD"
              },
              {
                "extendedErrorCode": "SCREENRULE_ACTION_INVALID_ATTRIBUTE_FOR_API_VERSION"
              },
              {
                "extendedErrorCode": "FIELD_RELATIONSHIP_NOT_SUPPORTED"
              },
              {
                "extendedErrorCode": "SUBFLOW_INPUT_VARIABLE_NO_INPUT_ACCESS"
              },
              {
                "extendedErrorCode": "ASSIGNMENTITEM_ELEMENT_MISSING_DATATYPE"
              }
            ],
            "fields": [
              "string",
              "string",
              "string",
              "string",
              "string"
            ],
            "message": "string",
            "statusCode": "SHARE_NEEDED_FOR_CHILD_OWNER"
          }
        ],
        "success": false
      },
      {
        "errors": [
          {
            "extendedErrorDetails": [
              {
                "extendedErrorCode": "ELEMENT_COORDINATES_INVALID"
              }
            ],
            "fields": [
              "string",
              "string",
              "string",
              "string",
              "string"
            ],
            "message": "string",
            "statusCode": "NO_ATTACHMENT_PERMISSION"
          },
          {
            "extendedErrorDetails": [
              {
                "extendedErrorCode": "SCREENFIELD_API_VERSION_NOT_SUPPORTED"
              },
              {
                "extendedErrorCode": "OBJECT_CANNOT_BE_UPDATED"
              },
              {
                "extendedErrorCode": "VARIABLE_FIELD_NOT_SUPPORTED_FOR_DATATYPE_AND_COLLECTION"
              }
            ],
            "fields": [
              "string",
              "string"
            ],
            "message": "string",
            "statusCode": "INVALID_ENTITY_FOR_UPSERT"
          },
          {
            "extendedErrorDetails": [
              {
                "extendedErrorCode": "RECORDFILTER_INVALID_DATATYPE"
              },
              {
                "extendedErrorCode": "FLOW_STAGE_ORDER_DUPLICATE"
              },
              {
                "extendedErrorCode": "SPECIFIC_FIELD_VALUE_MAKES_OTHER_FIELD_REQUIRED"
              },
              {
                "extendedErrorCode": "VISIBILITY_RULE_NOT_AVAILABLE_IN_ORG"
              },
              {
                "extendedErrorCode": "APEXCALLOUT_OUTPUT_NOT_FOUND"
              }
            ],
            "fields": [
              "string",
              "string",
              "string",
              "string",
              "string",
              "string"
            ],
            "message": "string",
            "statusCode": "OPERATION_ENQUEUED"
          },
          {
            "extendedErrorDetails": [
              {
                "extendedErrorCode": "WAITEVENT_INPUT_NOT_SUPPORTED_FOR_EVENTTYPE"
              },
              {
                "extendedErrorCode": "ELEMENT_INVALID_CONNECTOR"
              },
              {
                "extendedErrorCode": "TYPE_MAPPING_NOT_FOUND"
              },
              {
                "extendedErrorCode": "ASSIGNMENTITEM_INCOMPATIBLE_DATATYPES"
              }
            ],
            "fields": [
              "string",
              "string",
              "string",
              "string",
              "string",
              "string",
              "string",
              "string"
            ],
            "message": "string",
            "statusCode": "INVALID_OPERATOR"
          },
          {
            "extendedErrorDetails": [
              {
                "extendedErrorCode": "SUBFLOW_INPUT_VARIABLE_NOT_FOUND_IN_REFERENCEDFLOW"
              }
            ],
            "fields": [
              "string",
              "string",
              "string",
              "string",
              "string",
              "string",
              "string",
              "string",
              "string"
            ],
            "message": "string",
            "statusCode": "INVALID_READ_ONLY_USER_DML"
          },
          {
            "extendedErrorDetails": [
              {
                "extendedErrorCode": "INPUTPARAM_INCOMPATIBLE_WITH_COLLECTION_VARIABLE"
              },
              {
                "extendedErrorCode": "ASSIGNMENTITEM_FIELD_INVALID_DATATYPE"
              },
              {
                "extendedErrorCode": "FIELDASSIGNMENT_INVALID_DATATYPE"
              },
              {
                "extendedErrorCode": "PROCESSTYPE_COMPONENTTYPE_NOT_SUPPORTED"
              },
              {
                "extendedErrorCode": "VALUE_CHAR_LIMIT_EXCEEDED"
              },
              {
                "extendedErrorCode": "WORKFLOW_MISSING_PROCESSMETADATAVALUES"
              },
              {
                "extendedErrorCode": "WAITEVENT_DEFAULT_CONNECTOR_MISSING_LABEL"
              },
              {
                "extendedErrorCode": "SUBFLOW_INPUT_VARIABLE_NOT_FOUND_IN_REFERENCEDFLOW"
              }
            ],
            "fields": [
              "string",
              "string",
              "string",
              "string",
              "string",
              "string",
              "string"
            ],
            "message": "string",
            "statusCode": "SOCIAL_POST_INVALID"
          },
          {
            "extendedErrorDetails": [
              {
                "extendedErrorCode": "WAITEVENT_MISSING_EVENTTYPE"
              },
              {
                "extendedErrorCode": "SURVEY_MISSING_REQUIRED_VARIABLES"
              },
              {
                "extendedErrorCode": "STAGE_NAME_NOT_FULLY_QUALIFIED"
              },
              {
                "extendedErrorCode": "APEXCALLOUT_OUTPUT_INCOMPATIBLE_DATATYPE"
              },
              {
                "extendedErrorCode": "CONDITION_BUILDER_UNSUPPORTED_FLOW_VARIABLE"
              },
              {
                "extendedErrorCode": "ACTIONCALL_MISSING_REQUIRED_TYPE"
              },
              {
                "extendedErrorCode": "VISIBILITY_RULE_NOT_SUPPORTED_FOR_API_VERSION"
              },
              {
                "extendedErrorCode": "OBJECTTYPE_INVALID"
              }
            ],
            "fields": [
              "string",
              "string",
              "string",
              "string",
              "string",
              "string",
              "string",
              "string",
              "string"
            ],
            "message": "string",
            "statusCode": "PA_INVALID_ID_EXCEPTION"
          },
          {
            "extendedErrorDetails": [
              {
                "extendedErrorCode": "PAST_SCHEDULE_FLOW_WILL_NOT_RUN"
              }
            ],
            "fields": [
              "string",
              "string",
              "string",
              "string"
            ],
            "message": "string",
            "statusCode": "MATCH_OPERATION_UNKNOWN_RULE_ERROR"
          }
        ],
        "success": false
      }
    ]
  }
}