{
  "loginResponse": {
    "result": {
      "metadataServerUrl": "string",
      "passwordExpired": true,
      "sandbox": true,
      "serverUrl": "string",
      "sessionId": "string",
      "userId": "string",
      "userInfo": {
        "accessibilityMode": false,
        "chatterExternal": false,
        "currencySymbol": "string",
        "orgAttachmentFileSizeLimit": 5,
        "orgDefaultCurrencyIsoCode": "string",
        "orgDefaultCurrencyLocale": "string",
        "orgDisallowHtmlAttachments": true,
        "orgHasPersonAccounts": true,
        "organizationId": "string",
        "organizationMultiCurrency": false,
        "organizationName": "string",
        "profileId": "string",
        "roleId": "string",
        "sessionSecondsValid": 2,
        "userDefaultCurrencyIsoCode": "string",
        "userEmail": "string",
        "userFullName": "string",
        "userId": "string",
        "userLanguage": "string",
        "userLocale": "string",
        "userName": "string",
        "userTimeZone": "string",
        "userType": "string",
        "userUiSkin": "string"
      }
    }
  }
}