{
  "actions": [
    {
      "name": "postDescribeSObject",
      "protocol": "REST",
      "method": "POST",
      "entitypath": "{base_path}/{version}/describeSObject?{query}",
      "requestSchema": "schema.json",
      "responseSchema": "schema.json",
      "timeout": 0,
      "sendEmpty": false,
      "requestDatatype": "JSON",
      "responseDatatype": "JSON",
      "headers": {},
      "responseObjects": [
        {
          "type": "default",
          "key": "",
          "mockFile": "mockdatafiles/postDescribeSObject-default.json"
        }
      ]
    },
    {
      "name": "postDescribeSObjects",
      "protocol": "REST",
      "method": "POST",
      "entitypath": "{base_path}/{version}/describeSObjects?{query}",
      "requestSchema": "schema.json",
      "responseSchema": "schema.json",
      "timeout": 0,
      "sendEmpty": false,
      "requestDatatype": "JSON",
      "responseDatatype": "JSON",
      "headers": {},
      "responseObjects": [
        {
          "type": "default",
          "key": "",
          "mockFile": "mockdatafiles/postDescribeSObjects-default.json"
        }
      ]
    },
    {
      "name": "postDescribeLayout",
      "protocol": "REST",
      "method": "POST",
      "entitypath": "{base_path}/{version}/describeLayout?{query}",
      "requestSchema": "schema.json",
      "responseSchema": "schema.json",
      "timeout": 0,
      "sendEmpty": false,
      "requestDatatype": "JSON",
      "responseDatatype": "JSON",
      "headers": {},
      "responseObjects": [
        {
          "type": "default",
          "key": "",
          "mockFile": "mockdatafiles/postDescribeLayout-default.json"
        }
      ]
    },
    {
      "name": "postDescribeSearchLayouts",
      "protocol": "REST",
      "method": "POST",
      "entitypath": "{base_path}/{version}/describeSearchLayouts?{query}",
      "requestSchema": "schema.json",
      "responseSchema": "schema.json",
      "timeout": 0,
      "sendEmpty": false,
      "requestDatatype": "JSON",
      "responseDatatype": "JSON",
      "headers": {},
      "responseObjects": [
        {
          "type": "default",
          "key": "",
          "mockFile": "mockdatafiles/postDescribeSearchLayouts-default.json"
        }
      ]
    },
    {
      "name": "postDescribeCompactLayouts",
      "protocol": "REST",
      "method": "POST",
      "entitypath": "{base_path}/{version}/describeCompactLayouts?{query}",
      "requestSchema": "schema.json",
      "responseSchema": "schema.json",
      "timeout": 0,
      "sendEmpty": false,
      "requestDatatype": "JSON",
      "responseDatatype": "JSON",
      "headers": {},
      "responseObjects": [
        {
          "type": "default",
          "key": "",
          "mockFile": "mockdatafiles/postDescribeCompactLayouts-default.json"
        }
      ]
    },
    {
      "name": "postDescribePathAssistants",
      "protocol": "REST",
      "method": "POST",
      "entitypath": "{base_path}/{version}/describePathAssistants?{query}",
      "requestSchema": "schema.json",
      "responseSchema": "schema.json",
      "timeout": 0,
      "sendEmpty": false,
      "requestDatatype": "JSON",
      "responseDatatype": "JSON",
      "headers": {},
      "responseObjects": [
        {
          "type": "default",
          "key": "",
          "mockFile": "mockdatafiles/postDescribePathAssistants-default.json"
        }
      ]
    },
    {
      "name": "postDescribeApprovalLayout",
      "protocol": "REST",
      "method": "POST",
      "entitypath": "{base_path}/{version}/describeApprovalLayout?{query}",
      "requestSchema": "schema.json",
      "responseSchema": "schema.json",
      "timeout": 0,
      "sendEmpty": false,
      "requestDatatype": "JSON",
      "responseDatatype": "JSON",
      "headers": {},
      "responseObjects": [
        {
          "type": "default",
          "key": "",
          "mockFile": "mockdatafiles/postDescribeApprovalLayout-default.json"
        }
      ]
    },
    {
      "name": "postDescribeSObjectListViews",
      "protocol": "REST",
      "method": "POST",
      "entitypath": "{base_path}/{version}/describeSObjectListViews?{query}",
      "requestSchema": "schema.json",
      "responseSchema": "schema.json",
      "timeout": 0,
      "sendEmpty": false,
      "requestDatatype": "JSON",
      "responseDatatype": "JSON",
      "headers": {},
      "responseObjects": [
        {
          "type": "default",
          "key": "",
          "mockFile": "mockdatafiles/postDescribeSObjectListViews-default.json"
        }
      ]
    },
    {
      "name": "postDescribePrimaryCompactLayouts",
      "protocol": "REST",
      "method": "POST",
      "entitypath": "{base_path}/{version}/describePrimaryCompactLayouts?{query}",
      "requestSchema": "schema.json",
      "responseSchema": "schema.json",
      "timeout": 0,
      "sendEmpty": false,
      "requestDatatype": "JSON",
      "responseDatatype": "JSON",
      "headers": {},
      "responseObjects": [
        {
          "type": "default",
          "key": "",
          "mockFile": "mockdatafiles/postDescribePrimaryCompactLayouts-default.json"
        }
      ]
    },
    {
      "name": "postCreate",
      "protocol": "REST",
      "method": "POST",
      "entitypath": "{base_path}/{version}/create?{query}",
      "requestSchema": "schema.json",
      "responseSchema": "schema.json",
      "timeout": 0,
      "sendEmpty": false,
      "requestDatatype": "JSON",
      "responseDatatype": "JSON",
      "headers": {},
      "responseObjects": [
        {
          "type": "default",
          "key": "",
          "mockFile": "mockdatafiles/postCreate-default.json"
        }
      ]
    },
    {
      "name": "postUpdate",
      "protocol": "REST",
      "method": "POST",
      "entitypath": "{base_path}/{version}/update?{query}",
      "requestSchema": "schema.json",
      "responseSchema": "schema.json",
      "timeout": 0,
      "sendEmpty": false,
      "requestDatatype": "JSON",
      "responseDatatype": "JSON",
      "headers": {},
      "responseObjects": [
        {
          "type": "default",
          "key": "",
          "mockFile": "mockdatafiles/postUpdate-default.json"
        }
      ]
    },
    {
      "name": "postUpsert",
      "protocol": "REST",
      "method": "POST",
      "entitypath": "{base_path}/{version}/upsert?{query}",
      "requestSchema": "schema.json",
      "responseSchema": "schema.json",
      "timeout": 0,
      "sendEmpty": false,
      "requestDatatype": "JSON",
      "responseDatatype": "JSON",
      "headers": {},
      "responseObjects": [
        {
          "type": "default",
          "key": "",
          "mockFile": "mockdatafiles/postUpsert-default.json"
        }
      ]
    },
    {
      "name": "postMerge",
      "protocol": "REST",
      "method": "POST",
      "entitypath": "{base_path}/{version}/merge?{query}",
      "requestSchema": "schema.json",
      "responseSchema": "schema.json",
      "timeout": 0,
      "sendEmpty": false,
      "requestDatatype": "JSON",
      "responseDatatype": "JSON",
      "headers": {},
      "responseObjects": [
        {
          "type": "default",
          "key": "",
          "mockFile": "mockdatafiles/postMerge-default.json"
        }
      ]
    },
    {
      "name": "postDelete",
      "protocol": "REST",
      "method": "POST",
      "entitypath": "{base_path}/{version}/delete?{query}",
      "requestSchema": "schema.json",
      "responseSchema": "schema.json",
      "timeout": 0,
      "sendEmpty": false,
      "requestDatatype": "JSON",
      "responseDatatype": "JSON",
      "headers": {},
      "responseObjects": [
        {
          "type": "default",
          "key": "",
          "mockFile": "mockdatafiles/postDelete-default.json"
        }
      ]
    },
    {
      "name": "postUndelete",
      "protocol": "REST",
      "method": "POST",
      "entitypath": "{base_path}/{version}/undelete?{query}",
      "requestSchema": "schema.json",
      "responseSchema": "schema.json",
      "timeout": 0,
      "sendEmpty": false,
      "requestDatatype": "JSON",
      "responseDatatype": "JSON",
      "headers": {},
      "responseObjects": [
        {
          "type": "default",
          "key": "",
          "mockFile": "mockdatafiles/postUndelete-default.json"
        }
      ]
    },
    {
      "name": "postEmptyRecycleBin",
      "protocol": "REST",
      "method": "POST",
      "entitypath": "{base_path}/{version}/emptyRecycleBin?{query}",
      "requestSchema": "schema.json",
      "responseSchema": "schema.json",
      "timeout": 0,
      "sendEmpty": false,
      "requestDatatype": "JSON",
      "responseDatatype": "JSON",
      "headers": {},
      "responseObjects": [
        {
          "type": "default",
          "key": "",
          "mockFile": "mockdatafiles/postEmptyRecycleBin-default.json"
        }
      ]
    },
    {
      "name": "postRetrieve",
      "protocol": "REST",
      "method": "POST",
      "entitypath": "{base_path}/{version}/retrieve?{query}",
      "requestSchema": "schema.json",
      "responseSchema": "schema.json",
      "timeout": 0,
      "sendEmpty": false,
      "requestDatatype": "JSON",
      "responseDatatype": "JSON",
      "headers": {},
      "responseObjects": [
        {
          "type": "default",
          "key": "",
          "mockFile": "mockdatafiles/postRetrieve-default.json"
        }
      ]
    },
    {
      "name": "postGetDeleted",
      "protocol": "REST",
      "method": "POST",
      "entitypath": "{base_path}/{version}/getDeleted?{query}",
      "requestSchema": "schema.json",
      "responseSchema": "schema.json",
      "timeout": 0,
      "sendEmpty": false,
      "requestDatatype": "JSON",
      "responseDatatype": "JSON",
      "headers": {},
      "responseObjects": [
        {
          "type": "default",
          "key": "",
          "mockFile": "mockdatafiles/postGetDeleted-default.json"
        }
      ]
    },
    {
      "name": "postGetUpdated",
      "protocol": "REST",
      "method": "POST",
      "entitypath": "{base_path}/{version}/getUpdated?{query}",
      "requestSchema": "schema.json",
      "responseSchema": "schema.json",
      "timeout": 0,
      "sendEmpty": false,
      "requestDatatype": "JSON",
      "responseDatatype": "JSON",
      "headers": {},
      "responseObjects": [
        {
          "type": "default",
          "key": "",
          "mockFile": "mockdatafiles/postGetUpdated-default.json"
        }
      ]
    },
    {
      "name": "postSearch",
      "protocol": "REST",
      "method": "POST",
      "entitypath": "{base_path}/{version}/search?{query}",
      "requestSchema": "schema.json",
      "responseSchema": "schema.json",
      "timeout": 0,
      "sendEmpty": false,
      "requestDatatype": "JSON",
      "responseDatatype": "JSON",
      "headers": {},
      "responseObjects": [
        {
          "type": "default",
          "key": "",
          "mockFile": "mockdatafiles/postSearch-default.json"
        }
      ]
    },
    {
      "name": "deletesObjectsByExample",
      "protocol": "REST",
      "method": "POST",
      "entitypath": "{base_path}/{version}/deleteByExample?{query}",
      "requestSchema": "schema.json",
      "responseSchema": "schema.json",
      "timeout": 0,
      "sendEmpty": false,
      "requestDatatype": "JSON",
      "responseDatatype": "JSON",
      "headers": {},
      "responseObjects": [
        {
          "type": "default",
          "key": "",
          "mockFile": "mockdatafiles/deletesObjectsByExample-default.json"
        }
      ]
    },
    {
      "name": "postFindDuplicates",
      "protocol": "REST",
      "method": "POST",
      "entitypath": "{base_path}/{version}/findDuplicates?{query}",
      "requestSchema": "schema.json",
      "responseSchema": "schema.json",
      "timeout": 0,
      "sendEmpty": false,
      "requestDatatype": "JSON",
      "responseDatatype": "JSON",
      "headers": {},
      "responseObjects": [
        {
          "type": "default",
          "key": "",
          "mockFile": "mockdatafiles/postFindDuplicates-default.json"
        }
      ]
    },
    {
      "name": "findDuplicatessObjectsByIds",
      "protocol": "REST",
      "method": "POST",
      "entitypath": "{base_path}/{version}/findDuplicatesByIds?{query}",
      "requestSchema": "schema.json",
      "responseSchema": "schema.json",
      "timeout": 0,
      "sendEmpty": false,
      "requestDatatype": "JSON",
      "responseDatatype": "JSON",
      "headers": {},
      "responseObjects": [
        {
          "type": "default",
          "key": "",
          "mockFile": "mockdatafiles/findDuplicatessObjectsByIds-default.json"
        }
      ]
    }
  ]
}