{
  "renderEmailTemplateResponse": {
    "result": [
      {
        "bodyResults": [
          {
            "errors": [
              {
                "fieldName": "string",
                "message": "string",
                "offset": 10,
                "statusCode": "REPUTATION_MINIMUM_NUMBER_NOT_REACHED"
              },
              {
                "fieldName": "string",
                "message": "string",
                "offset": 10,
                "statusCode": "DUPLICATE_DEVELOPER_NAME"
              },
              {
                "fieldName": "string",
                "message": "string",
                "offset": 2,
                "statusCode": "USER_OWNS_PORTAL_ACCOUNT_EXCEPTION"
              },
              {
                "fieldName": "string",
                "message": "string",
                "offset": 1,
                "statusCode": "INVALID_FIELD_FOR_INSERT_UPDATE"
              },
              {
                "fieldName": "string",
                "message": "string",
                "offset": 7,
                "statusCode": "INVALID_DATA_URI"
              },
              {
                "fieldName": "string",
                "message": "string",
                "offset": 9,
                "statusCode": "DUPLICATE_EXTERNAL_ID"
              },
              {
                "fieldName": "string",
                "message": "string",
                "offset": 10,
                "statusCode": "EMAIL_TEMPLATE_MERGEFIELD_ERROR"
              },
              {
                "fieldName": "string",
                "message": "string",
                "offset": 4,
                "statusCode": "UNSAFE_HTML_CONTENT"
              },
              {
                "fieldName": "string",
                "message": "string",
                "offset": 1,
                "statusCode": "INVALID_SITE_FILE_TYPE_EXCEPTION"
              }
            ],
            "mergedBody": "string",
            "success": false
          },
          {
            "errors": [
              {
                "fieldName": "string",
                "message": "string",
                "offset": 3,
                "statusCode": "INVALID_TYPE"
              },
              {
                "fieldName": "string",
                "message": "string",
                "offset": 10,
                "statusCode": "DUPLICATE_DEVELOPER_NAME"
              },
              {
                "fieldName": "string",
                "message": "string",
                "offset": 6,
                "statusCode": "REQUEST_RUNNING_TOO_LONG"
              },
              {
                "fieldName": "string",
                "message": "string",
                "offset": 2,
                "statusCode": "MAX_RULES_EXCEEDED"
              },
              {
                "fieldName": "string",
                "message": "string",
                "offset": 7,
                "statusCode": "EMAIL_EXTERNAL_TRANSPORT_TOO_MANY_REQUESTS_ERROR"
              },
              {
                "fieldName": "string",
                "message": "string",
                "offset": 4,
                "statusCode": "ORDER_MANAGEMENT_RECORD_NOT_FOUND"
              },
              {
                "fieldName": "string",
                "message": "string",
                "offset": 7,
                "statusCode": "INVALID_ASSIGNMENT_RULE"
              },
              {
                "fieldName": "string",
                "message": "string",
                "offset": 6,
                "statusCode": "UNVERIFIED_SENDER_ADDRESS"
              },
              {
                "fieldName": "string",
                "message": "string",
                "offset": 8,
                "statusCode": "INVALID_USERID"
              },
              {
                "fieldName": "string",
                "message": "string",
                "offset": 5,
                "statusCode": "ORDER_MANAGEMENT_RECORD_EXISTS"
              }
            ],
            "mergedBody": "string",
            "success": true
          },
          {
            "errors": [
              {
                "fieldName": "string",
                "message": "string",
                "offset": 5,
                "statusCode": "STORAGE_LIMIT_EXCEEDED"
              },
              {
                "fieldName": "string",
                "message": "string",
                "offset": 5,
                "statusCode": "NO_SUCH_USER_EXISTS"
              },
              {
                "fieldName": "string",
                "message": "string",
                "offset": 1,
                "statusCode": "MAXIMUM_SIZE_OF_DOCUMENT"
              },
              {
                "fieldName": "string",
                "message": "string",
                "offset": 6,
                "statusCode": "INTERNAL_ERROR"
              },
              {
                "fieldName": "string",
                "message": "string",
                "offset": 5,
                "statusCode": "EMAIL_EXTERNAL_TRANSPORT_PERMISSION_ERROR"
              },
              {
                "fieldName": "string",
                "message": "string",
                "offset": 2,
                "statusCode": "CUSTOM_INDEX_EXISTS"
              },
              {
                "fieldName": "string",
                "message": "string",
                "offset": 7,
                "statusCode": "INVALID_SIGNUP_OPTION"
              },
              {
                "fieldName": "string",
                "message": "string",
                "offset": 10,
                "statusCode": "COMMUNITY_NOT_ACCESSIBLE"
              },
              {
                "fieldName": "string",
                "message": "string",
                "offset": 10,
                "statusCode": "WEBLINK_SIZE_LIMIT_EXCEEDED"
              }
            ],
            "mergedBody": "string",
            "success": false
          },
          {
            "errors": [
              {
                "fieldName": "string",
                "message": "string",
                "offset": 10,
                "statusCode": "PALI_INVALID_ACTION_NAME"
              },
              {
                "fieldName": "string",
                "message": "string",
                "offset": 2,
                "statusCode": "FIELD_FILTER_VALIDATION_EXCEPTION"
              },
              {
                "fieldName": "string",
                "message": "string",
                "offset": 6,
                "statusCode": "RECORD_IN_USE_BY_WORKFLOW"
              },
              {
                "fieldName": "string",
                "message": "string",
                "offset": 4,
                "statusCode": "HAS_PUBLIC_REFERENCES"
              },
              {
                "fieldName": "string",
                "message": "string",
                "offset": 4,
                "statusCode": "REL_FIELD_BAD_ACCESSIBILITY"
              }
            ],
            "mergedBody": "string",
            "success": true
          },
          {
            "errors": [
              {
                "fieldName": "string",
                "message": "string",
                "offset": 2,
                "statusCode": "INVALID_FIELD"
              },
              {
                "fieldName": "string",
                "message": "string",
                "offset": 6,
                "statusCode": "CANNOT_EXECUTE_FLOW_TRIGGER"
              },
              {
                "fieldName": "string",
                "message": "string",
                "offset": 4,
                "statusCode": "INVALID_TEXT_REPRESENTATION"
              },
              {
                "fieldName": "string",
                "message": "string",
                "offset": 1,
                "statusCode": "DUPLICATES_DETECTED"
              }
            ],
            "mergedBody": "string",
            "success": false
          },
          {
            "errors": [
              {
                "fieldName": "string",
                "message": "string",
                "offset": 7,
                "statusCode": "PRICE_NOT_FOUND"
              },
              {
                "fieldName": "string",
                "message": "string",
                "offset": 4,
                "statusCode": "CANNOT_FREEZE_SELF"
              },
              {
                "fieldName": "string",
                "message": "string",
                "offset": 9,
                "statusCode": "CANT_UNSET_CORP_CURRENCY"
              },
              {
                "fieldName": "string",
                "message": "string",
                "offset": 8,
                "statusCode": "STRING_TOO_LONG"
              },
              {
                "fieldName": "string",
                "message": "string",
                "offset": 3,
                "statusCode": "QA_INVALID_CREATE_FEED_ITEM"
              }
            ],
            "mergedBody": "string",
            "success": false
          },
          {
            "errors": [
              {
                "fieldName": "string",
                "message": "string",
                "offset": 10,
                "statusCode": "CUSTOM_LINK_LIMIT_EXCEEDED"
              },
              {
                "fieldName": "string",
                "message": "string",
                "offset": 4,
                "statusCode": "WRONG_CONTROLLER_TYPE"
              },
              {
                "fieldName": "string",
                "message": "string",
                "offset": 2,
                "statusCode": "INVALID_STATUS"
              },
              {
                "fieldName": "string",
                "message": "string",
                "offset": 7,
                "statusCode": "CANNOT_UPDATE_CONVERTED_LEAD"
              }
            ],
            "mergedBody": "string",
            "success": true
          },
          {
            "errors": [
              {
                "fieldName": "string",
                "message": "string",
                "offset": 2,
                "statusCode": "ORDER_MANAGEMENT_RECORD_EXISTS"
              },
              {
                "fieldName": "string",
                "message": "string",
                "offset": 1,
                "statusCode": "ORDER_MANAGEMENT_RECORD_EXISTS"
              },
              {
                "fieldName": "string",
                "message": "string",
                "offset": 4,
                "statusCode": "AURA_COMPILE_ERROR"
              },
              {
                "fieldName": "string",
                "message": "string",
                "offset": 5,
                "statusCode": "MATCH_OPERATION_MISSING_RULE_ERROR"
              },
              {
                "fieldName": "string",
                "message": "string",
                "offset": 6,
                "statusCode": "CANNOT_REPARENT_RECORD"
              },
              {
                "fieldName": "string",
                "message": "string",
                "offset": 2,
                "statusCode": "TOO_MANY_ENUM_VALUE"
              },
              {
                "fieldName": "string",
                "message": "string",
                "offset": 10,
                "statusCode": "PALI_INVALID_ACTION_TYPE"
              },
              {
                "fieldName": "string",
                "message": "string",
                "offset": 3,
                "statusCode": "ENTITY_FAILED_IFLASTMODIFIED_ON_UPDATE"
              },
              {
                "fieldName": "string",
                "message": "string",
                "offset": 5,
                "statusCode": "INVALID_MESSAGE_ID_REFERENCE"
              }
            ],
            "mergedBody": "string",
            "success": false
          }
        ],
        "errors": [
          {
            "extendedErrorDetails": [
              {
                "extendedErrorCode": "RECOMMENDATION_STRATEGY_EXCEPTION"
              },
              {
                "extendedErrorCode": "SUBFLOW_OUTPUT_MISMATCHED_OBJECTS"
              },
              {
                "extendedErrorCode": "ASSIGNMENTITEM_RIGHT_DATATYPE_INVALID_FOR_OPERATOR"
              },
              {
                "extendedErrorCode": "OBJECT_CANNOT_BE_DELETED"
              },
              {
                "extendedErrorCode": "PROCESSTYPE_SCREEN_FIELDTYPE_NOT_SUPPORTED"
              },
              {
                "extendedErrorCode": "INPUTPARAM_INCOMPATIBLE_DATATYPE"
              },
              {
                "extendedErrorCode": "AUTOLAUNCHED_CHOICELOOKUP_NOT_SUPPORTED"
              },
              {
                "extendedErrorCode": "SCREENRULE_VISIBILITY_NOT_SUPPORTED_IN_ORG"
              },
              {
                "extendedErrorCode": "SCREENRULE_ACTION_INVALID_ATTRIBUTE_FOR_API_VERSION"
              }
            ],
            "fields": [
              "string",
              "string",
              "string"
            ],
            "message": "string",
            "statusCode": "INVALID_PACKAGE_LICENSE"
          },
          {
            "extendedErrorDetails": [
              {
                "extendedErrorCode": "SUBFLOW_OUTPUT_MISSING_ASSIGNTOREFERENCE"
              },
              {
                "extendedErrorCode": "EXTERNAL_OBJECT_FIELDS_NOT_SUPPORTED"
              },
              {
                "extendedErrorCode": "CHOICE_DATATYPE_INCOMPATIBLE_WITH_CHOICEFIELD"
              },
              {
                "extendedErrorCode": "SURVEY_ADVANCED_CONDITION_LOGIC_NOT_SUPPORTED"
              },
              {
                "extendedErrorCode": "WAITEVENT_INPUT_REQUIRES_LITERAL_VALUE"
              },
              {
                "extendedErrorCode": "LOOP_COLLECTION_NOT_FOUND"
              },
              {
                "extendedErrorCode": "SURVEY_CHOICE_NOT_REFERENCED_BY_A_QUESTION"
              }
            ],
            "fields": [
              "string",
              "string"
            ],
            "message": "string",
            "statusCode": "FIELD_KEYWORD_LIST_MATCH_LIMIT"
          },
          {
            "extendedErrorDetails": [
              {
                "extendedErrorCode": "AUTOLAUNCHED_CHOICE_NOT_SUPPORTED"
              },
              {
                "extendedErrorCode": "FLOW_INTERVIEW_INVALID_CHOICE_USER_INPUT"
              },
              {
                "extendedErrorCode": "TYPE_MAPPING_NAME_MISSING"
              },
              {
                "extendedErrorCode": "APEXCALLOUT_INPUT_DUPLICATE"
              }
            ],
            "fields": [
              "string",
              "string",
              "string",
              "string",
              "string",
              "string",
              "string",
              "string",
              "string",
              "string"
            ],
            "message": "string",
            "statusCode": "PLATFORM_EVENT_PUBLISH_FAILED"
          },
          {
            "extendedErrorDetails": [
              {
                "extendedErrorCode": "FIELDASSIGNMENT_PICKLISTFIELD_INCOMPATIBLE_DATATYPE"
              },
              {
                "extendedErrorCode": "SCREENFIELD_EXTENSION_DUPLICATE_OUTPUT_PARAM"
              },
              {
                "extendedErrorCode": "VARIABLE_FIELD_NOT_SUPPORTED_FOR_DATATYPE_AND_COLLECTION"
              }
            ],
            "fields": [
              "string",
              "string",
              "string",
              "string",
              "string"
            ],
            "message": "string",
            "statusCode": "NO_ACCESS_TOKEN"
          },
          {
            "extendedErrorDetails": [
              {
                "extendedErrorCode": "SURVEY_SCREENFIELD_TYPE_NOT_SUPPORTED_FOR_QUESTION"
              },
              {
                "extendedErrorCode": "SUBFLOW_PROCESS_TYPE_INCOMPATIBLE"
              },
              {
                "extendedErrorCode": "SCREENRULE_ATTRIBUTE_NOT_SUPPORTED_FOR_SCREENFIELD"
              },
              {
                "extendedErrorCode": "WAITEVENT_DEFAULT_CONNECTOR_MISSING_LABEL"
              },
              {
                "extendedErrorCode": "SYSTEM_MODE_NOT_ALLOWED"
              },
              {
                "extendedErrorCode": "FLOW_SOBJECT_VARIABLE_NOT_PERSISTED"
              },
              {
                "extendedErrorCode": "CHOICEFIELD_DEFAULT_CHOICE_NOT_FOUND"
              },
              {
                "extendedErrorCode": "ELEMENT_INVALID_REFERENCE"
              }
            ],
            "fields": [
              "string",
              "string",
              "string",
              "string",
              "string",
              "string"
            ],
            "message": "string",
            "statusCode": "WEBLINK_URL_INVALID"
          }
        ],
        "success": true
      },
      {
        "bodyResults": [
          {
            "errors": [
              {
                "fieldName": "string",
                "message": "string",
                "offset": 9,
                "statusCode": "MAX_ACTIONS_PER_RULE_EXCEEDED"
              }
            ],
            "mergedBody": "string",
            "success": false
          }
        ],
        "errors": [
          {
            "extendedErrorDetails": [
              {
                "extendedErrorCode": "FLOW_INTERVIEW_INVALID_FIELD_VALUE"
              },
              {
                "extendedErrorCode": "INPUTPARAM_INCOMPATIBLE_WITH_NONCOLLECTION_VARIABLE"
              }
            ],
            "fields": [
              "string",
              "string",
              "string",
              "string",
              "string",
              "string"
            ],
            "message": "string",
            "statusCode": "INVALID_TYPE"
          },
          {
            "extendedErrorDetails": [
              {
                "extendedErrorCode": "ASSIGNMENTITEM_NONEXISTENT_REFERENCE"
              },
              {
                "extendedErrorCode": "ELEMENT_COORDINATES_INVALID"
              },
              {
                "extendedErrorCode": "SURVEY_SCREENFIELD_TYPE_NOT_SUPPORTED_FOR_QUESTION"
              },
              {
                "extendedErrorCode": "SURVEY_MISSING_QUESTION_OR_SUBFLOW"
              },
              {
                "extendedErrorCode": "ACTIONCALL_MISSING_REQUIRED_TYPE"
              },
              {
                "extendedErrorCode": "SCREEN_MISSING_FOOTER_AND_LIGHTNING_COMPONENT"
              },
              {
                "extendedErrorCode": "FLOW_INTERVIEW_MISSING_CHOICE_FOR_REQUIRED_CHOICE_FIELD"
              },
              {
                "extendedErrorCode": "START_ELEMENT_MISSING"
              },
              {
                "extendedErrorCode": "FLOW_REFERENCES_APEX_CLASS_NOT_IN_SAME_PACKAGE"
              },
              {
                "extendedErrorCode": "INPUTPARAM_INCOMPATIBLE_WITH_NONCOLLECTION_VARIABLE"
              }
            ],
            "fields": [
              "string",
              "string",
              "string",
              "string",
              "string",
              "string",
              "string"
            ],
            "message": "string",
            "statusCode": "LIMIT_EXCEEDED"
          },
          {
            "extendedErrorDetails": [
              {
                "extendedErrorCode": "SUBFLOW_OUTPUT_MISSING_NAME"
              },
              {
                "extendedErrorCode": "SURVEY_ELEMENT_NEVER_REACHED"
              },
              {
                "extendedErrorCode": "SUBFLOW_OUTPUT_VARIABLE_NOT_FOUND_IN_REFERENCEDFLOW"
              },
              {
                "extendedErrorCode": "INVALID_FLOW"
              },
              {
                "extendedErrorCode": "WORKFLOW_TRIGGERTYPE_INVALID_VALUE"
              }
            ],
            "fields": [
              "string",
              "string",
              "string",
              "string",
              "string",
              "string",
              "string",
              "string"
            ],
            "message": "string",
            "statusCode": "BAD_CUSTOM_ENTITY_PARENT_DOMAIN"
          },
          {
            "extendedErrorDetails": [
              {
                "extendedErrorCode": "TYPE_MAPPING_NOT_SUPPORTED_FOR_PROCESS_TYPE"
              },
              {
                "extendedErrorCode": "ELEMENT_MORE_THAN_ONE_FIELD"
              },
              {
                "extendedErrorCode": "SCREENFIELD_EXTENSION_OUTPUT_ATTRIBUTE_INVALID"
              },
              {
                "extendedErrorCode": "SUBFLOW_NO_ACTIVE_VERSION"
              },
              {
                "extendedErrorCode": "CHOICELOOKUP_DATATYPE_INCOMPATIBLE_WITH_CHOICEFIELD"
              },
              {
                "extendedErrorCode": "CONDITION_RIGHTOPERAND_NULL"
              },
              {
                "extendedErrorCode": "WORKFLOW_RECURSIVECOUNTVARIABLE_DOESNT_SUPPORT_INPUT"
              },
              {
                "extendedErrorCode": "AUTOLAUNCHED_CHOICE_NOT_SUPPORTED"
              },
              {
                "extendedErrorCode": "ASSIGNMENTITEM_INCOMPATIBLE_DATATYPES"
              }
            ],
            "fields": [
              "string",
              "string",
              "string",
              "string",
              "string"
            ],
            "message": "string",
            "statusCode": "DUPLICATE_CUSTOM_TAB_MOTIF"
          },
          {
            "extendedErrorDetails": [
              {
                "extendedErrorCode": "SCREENFIELD_API_VERSION_NOT_SUPPORTED"
              },
              {
                "extendedErrorCode": "WAITEVENT_RELATIVEALARM_INVALID_OFFSETNUMBER"
              },
              {
                "extendedErrorCode": "SORT_ORDER_MISSING"
              },
              {
                "extendedErrorCode": "AUTOLAUNCHED_WAIT_NOT_SUPPORTED"
              },
              {
                "extendedErrorCode": "AUTOLAUNCHED_STEP_NOT_SUPPORTED"
              },
              {
                "extendedErrorCode": "VARIABLE_SCALE_NULL"
              }
            ],
            "fields": [
              "string",
              "string",
              "string"
            ],
            "message": "string",
            "statusCode": "ITEM_NOT_FOUND"
          }
        ],
        "success": true
      },
      {
        "bodyResults": [
          {
            "errors": [
              {
                "fieldName": "string",
                "message": "string",
                "offset": 8,
                "statusCode": "INVALID_ENTITY_FOR_MATCH_OPERATION_ERROR"
              },
              {
                "fieldName": "string",
                "message": "string",
                "offset": 2,
                "statusCode": "ENTITY_FAILED_IFLASTMODIFIED_ON_UPDATE"
              },
              {
                "fieldName": "string",
                "message": "string",
                "offset": 4,
                "statusCode": "CANNOT_ENABLE_IP_RESTRICT_REQUESTS"
              }
            ],
            "mergedBody": "string",
            "success": false
          },
          {
            "errors": [
              {
                "fieldName": "string",
                "message": "string",
                "offset": 8,
                "statusCode": "EXCHANGE_WEB_SERVICES_URL_INVALID"
              },
              {
                "fieldName": "string",
                "message": "string",
                "offset": 5,
                "statusCode": "MATCH_OPERATION_ERROR"
              }
            ],
            "mergedBody": "string",
            "success": false
          },
          {
            "errors": [
              {
                "fieldName": "string",
                "message": "string",
                "offset": 1,
                "statusCode": "HTML_FILE_UPLOAD_NOT_ALLOWED"
              },
              {
                "fieldName": "string",
                "message": "string",
                "offset": 8,
                "statusCode": "TOO_MANY_POSSIBLE_USERS_EXIST"
              },
              {
                "fieldName": "string",
                "message": "string",
                "offset": 1,
                "statusCode": "MATCH_OPERATION_MISSING_ENGINE_ERROR"
              }
            ],
            "mergedBody": "string",
            "success": true
          },
          {
            "errors": [
              {
                "fieldName": "string",
                "message": "string",
                "offset": 9,
                "statusCode": "ITEM_NOT_FOUND"
              }
            ],
            "mergedBody": "string",
            "success": true
          },
          {
            "errors": [
              {
                "fieldName": "string",
                "message": "string",
                "offset": 6,
                "statusCode": "MATCH_OPERATION_MISSING_OBJECT_TYPE_ERROR"
              }
            ],
            "mergedBody": "string",
            "success": true
          },
          {
            "errors": [
              {
                "fieldName": "string",
                "message": "string",
                "offset": 2,
                "statusCode": "MISSING_RECORD"
              },
              {
                "fieldName": "string",
                "message": "string",
                "offset": 8,
                "statusCode": "MAXIMUM_SIZE_OF_ATTACHMENT"
              },
              {
                "fieldName": "string",
                "message": "string",
                "offset": 3,
                "statusCode": "INVALID_TYPE_ON_FIELD_IN_RECORD"
              },
              {
                "fieldName": "string",
                "message": "string",
                "offset": 4,
                "statusCode": "INVALID_AUTH_HEADER"
              },
              {
                "fieldName": "string",
                "message": "string",
                "offset": 5,
                "statusCode": "CANNOT_FREEZE_SELF"
              },
              {
                "fieldName": "string",
                "message": "string",
                "offset": 9,
                "statusCode": "TABSET_LIMIT_EXCEEDED"
              },
              {
                "fieldName": "string",
                "message": "string",
                "offset": 2,
                "statusCode": "NO_ACCESS_TOKEN_FROM_REFRESH"
              }
            ],
            "mergedBody": "string",
            "success": false
          },
          {
            "errors": [
              {
                "fieldName": "string",
                "message": "string",
                "offset": 10,
                "statusCode": "INVALID_SESSION_ID"
              },
              {
                "fieldName": "string",
                "message": "string",
                "offset": 10,
                "statusCode": "MAX_TASK_DESCRIPTION_EXCEEEDED"
              },
              {
                "fieldName": "string",
                "message": "string",
                "offset": 9,
                "statusCode": "PA_AXIS_FAULT"
              },
              {
                "fieldName": "string",
                "message": "string",
                "offset": 7,
                "statusCode": "SALESFORCE_INBOX_TRANSPORT_CONNECTION_ERROR"
              },
              {
                "fieldName": "string",
                "message": "string",
                "offset": 8,
                "statusCode": "FIND_DUPLICATES_ERROR"
              },
              {
                "fieldName": "string",
                "message": "string",
                "offset": 4,
                "statusCode": "INVALID_EMAIL_ADDRESS"
              },
              {
                "fieldName": "string",
                "message": "string",
                "offset": 4,
                "statusCode": "DATAASSESSMENT_CONFIG_ASSESSMENT_IN_PROGRESS_ERROR"
              }
            ],
            "mergedBody": "string",
            "success": false
          }
        ],
        "errors": [
          {
            "extendedErrorDetails": [
              {
                "extendedErrorCode": "DYNAMIC_TYPE_MAPPING_MISSING"
              },
              {
                "extendedErrorCode": "OBJECT_CANNOT_BE_UPDATED"
              },
              {
                "extendedErrorCode": "INPUTPARAM_MISMATCHED_OBJECTTYPE"
              },
              {
                "extendedErrorCode": "CONDITION_LOGIC_MISSING"
              },
              {
                "extendedErrorCode": "CONNECTOR_MISSING_TARGET"
              }
            ],
            "fields": [
              "string",
              "string",
              "string",
              "string",
              "string",
              "string",
              "string",
              "string",
              "string"
            ],
            "message": "string",
            "statusCode": "MAX_FORMULAS_PER_RULE_EXCEEDED"
          },
          {
            "extendedErrorDetails": [
              {
                "extendedErrorCode": "VARIABLE_FIELD_NOT_SUPPORTED_FOR_DATATYPE_AND_COLLECTION"
              },
              {
                "extendedErrorCode": "DECISION_DEFAULT_CONNECTOR_MISSING_LABEL"
              },
              {
                "extendedErrorCode": "CONSTANT_INCLUDES_REFERENCES"
              },
              {
                "extendedErrorCode": "SUBFLOW_OUTPUT_TARGET_DOES_NOT_EXIST_IN_MASTER_FLOW"
              },
              {
                "extendedErrorCode": "SCREENFIELD_EXTENSION_REQUIRED_INPUT_MISSING"
              }
            ],
            "fields": [
              "string",
              "string",
              "string",
              "string",
              "string",
              "string",
              "string",
              "string",
              "string",
              "string"
            ],
            "message": "string",
            "statusCode": "UNSAFE_HTML_CONTENT"
          },
          {
            "extendedErrorDetails": [
              {
                "extendedErrorCode": "WORKFLOW_RECURSIVECOUNTVARIABLE_DOESNT_SUPPORT_INPUT"
              },
              {
                "extendedErrorCode": "ASSIGNMENTITEM_REQUIRED"
              }
            ],
            "fields": [
              "string",
              "string",
              "string",
              "string",
              "string",
              "string"
            ],
            "message": "string",
            "statusCode": "UNSAFE_HTML_CONTENT"
          },
          {
            "extendedErrorDetails": [
              {
                "extendedErrorCode": "SUBFLOW_INPUT_REFERENCES_FIELD_ON_SOBJECT_VARIABLE"
              },
              {
                "extendedErrorCode": "SCREENRULE_VISIBILITY_NOT_SUPPORTED_IN_ORG"
              },
              {
                "extendedErrorCode": "VALUE_CHAR_LIMIT_EXCEEDED"
              },
              {
                "extendedErrorCode": "SCREEN_CONTAINS_LIGHTNING_COMPONENT"
              },
              {
                "extendedErrorCode": "SUBFLOW_PROCESS_TYPE_INCOMPATIBLE"
              },
              {
                "extendedErrorCode": "FLOW_SYSTEM_VARIABLE_NOT_SUPPORTED_FOR_TRIGGERTYPE"
              },
              {
                "extendedErrorCode": "SUBFLOW_OUTPUT_MISMATCHED_COLLECTIONTYPES"
              },
              {
                "extendedErrorCode": "SCREENFIELD_BOOLEAN_ISREQUIRED_IS_FALSE"
              },
              {
                "extendedErrorCode": "ACTIONCALL_DUPLICATE_INPUT_PARAM"
              },
              {
                "extendedErrorCode": "APEXCALLOUT_REQUIRED_INPUT_MISSING"
              }
            ],
            "fields": [
              "string",
              "string",
              "string",
              "string",
              "string"
            ],
            "message": "string",
            "statusCode": "DELETE_FAILED"
          },
          {
            "extendedErrorDetails": [
              {
                "extendedErrorCode": "FLOW_STAGE_ORDER_OUT_OF_RANGE"
              },
              {
                "extendedErrorCode": "SURVEY_CHOICE_REFERENCED_BY_MULTIPLE_QUESTIONS"
              },
              {
                "extendedErrorCode": "SCREENFIELD_USERINPUT_NOT_SUPPORTED_FOR_CHOICETYPE"
              },
              {
                "extendedErrorCode": "SUBFLOW_OUTPUT_MISMATCHED_COLLECTIONTYPES"
              },
              {
                "extendedErrorCode": "WORKFLOW_OBJECTTYPE_NOT_FOUND"
              }
            ],
            "fields": [
              "string",
              "string",
              "string"
            ],
            "message": "string",
            "statusCode": "INVALID_OAUTH_URL"
          }
        ],
        "success": false
      },
      {
        "bodyResults": [
          {
            "errors": [
              {
                "fieldName": "string",
                "message": "string",
                "offset": 1,
                "statusCode": "CANNOT_CHANGE_FIELD_TYPE_OF_REFERENCED_FIELD"
              },
              {
                "fieldName": "string",
                "message": "string",
                "offset": 10,
                "statusCode": "INVALID_EXTENSION_ID"
              },
              {
                "fieldName": "string",
                "message": "string",
                "offset": 4,
                "statusCode": "OPTED_OUT_OF_MASS_MAIL"
              },
              {
                "fieldName": "string",
                "message": "string",
                "offset": 5,
                "statusCode": "CUSTOM_LINK_LIMIT_EXCEEDED"
              },
              {
                "fieldName": "string",
                "message": "string",
                "offset": 3,
                "statusCode": "RETRIEVE_USER_CONFIG_ERROR"
              },
              {
                "fieldName": "string",
                "message": "string",
                "offset": 2,
                "statusCode": "LIGHT_PORTAL_USER_EXCEPTION"
              },
              {
                "fieldName": "string",
                "message": "string",
                "offset": 8,
                "statusCode": "MERGE_FAILED"
              },
              {
                "fieldName": "string",
                "message": "string",
                "offset": 1,
                "statusCode": "XCLEAN_DJ_MATCH_NON_RETRIABLE_ERROR"
              },
              {
                "fieldName": "string",
                "message": "string",
                "offset": 2,
                "statusCode": "FIELD_FILTER_VALIDATION_EXCEPTION"
              },
              {
                "fieldName": "string",
                "message": "string",
                "offset": 3,
                "statusCode": "INSUFFICIENT_ACCESS_TO_INSIGHTSEXTERNALDATA"
              }
            ],
            "mergedBody": "string",
            "success": false
          }
        ],
        "errors": [
          {
            "extendedErrorDetails": [
              {
                "extendedErrorCode": "SETTING_FIELD_MAKES_OTHER_FIELD_UNSUPPORTED"
              },
              {
                "extendedErrorCode": "ASSIGNMENTITEM_FIELD_INVALID_DATATYPE"
              },
              {
                "extendedErrorCode": "SOBJECT_ELEMENT_INCOMPATIBLE_DATATYPE"
              },
              {
                "extendedErrorCode": "RECORDFILTER_GEOLOCATION_FIELDS_NOT_SUPPORTED"
              },
              {
                "extendedErrorCode": "WAITEVENT_TYPE_INVALID_OR_NOT_SUPPORTED"
              },
              {
                "extendedErrorCode": "SCREENFIELD_EXTENSION_INPUT_ATTRIBUTE_INVALID"
              },
              {
                "extendedErrorCode": "VARIABLE_SCALE_NULL"
              }
            ],
            "fields": [
              "string",
              "string",
              "string",
              "string",
              "string",
              "string",
              "string",
              "string"
            ],
            "message": "string",
            "statusCode": "INVALID_PACKAGE_VERSION"
          },
          {
            "extendedErrorDetails": [
              {
                "extendedErrorCode": "WORKFLOW_MISSING_PROCESSMETADATAVALUES"
              }
            ],
            "fields": [
              "string",
              "string",
              "string",
              "string"
            ],
            "message": "string",
            "statusCode": "CANNOT_RENAME_APEX_REFERENCED_OBJECT"
          },
          {
            "extendedErrorDetails": [
              {
                "extendedErrorCode": "FLOW_ELEMENT_SCALE_LESS_THAN_ZERO"
              },
              {
                "extendedErrorCode": "SYSTEM_MODE_NOT_ALLOWED"
              },
              {
                "extendedErrorCode": "CUSTOMEVENT_MISSING_PROCESSMETADATAVALUES"
              },
              {
                "extendedErrorCode": "UNEXPECTED_ERROR"
              }
            ],
            "fields": [
              "string",
              "string",
              "string"
            ],
            "message": "string",
            "statusCode": "ENTITY_IS_LOCKED"
          },
          {
            "extendedErrorDetails": [
              {
                "extendedErrorCode": "SUBFLOW_INPUT_MISSING_NAME"
              },
              {
                "extendedErrorCode": "WAITEVENT_INPUT_REQUIRES_LITERAL_VALUE"
              },
              {
                "extendedErrorCode": "SCREENRULE_ACTION_INVALID_VALUE"
              },
              {
                "extendedErrorCode": "FLOW_INTERVIEW_START_INTERVIEW"
              },
              {
                "extendedErrorCode": "ELEMENT_MISSING_REFERENCE"
              },
              {
                "extendedErrorCode": "FIELD_RELATIONSHIP_NOT_SUPPORTED"
              }
            ],
            "fields": [
              "string",
              "string",
              "string",
              "string",
              "string",
              "string",
              "string",
              "string",
              "string",
              "string"
            ],
            "message": "string",
            "statusCode": "SUBDOMAIN_IN_USE"
          },
          {
            "extendedErrorDetails": [
              {
                "extendedErrorCode": "GLOBAL_VARIABLE_NOT_SUPPORTED_FOR_PROCESSTYPE"
              },
              {
                "extendedErrorCode": "TYPE_MAPPING_NOT_SUPPORTED"
              },
              {
                "extendedErrorCode": "SCREENFIELD_EXTENSION_NAME_MISSING"
              },
              {
                "extendedErrorCode": "CONDITION_BUILDER_MISSING_FLOW_VARIABLE"
              },
              {
                "extendedErrorCode": "CHOICEFIELD_MISSING_CHOICE"
              },
              {
                "extendedErrorCode": "FLEXIPAGE_COMPONENT_ATTRIBUTE_GENERIC_EXCEPTION"
              }
            ],
            "fields": [
              "string",
              "string",
              "string",
              "string",
              "string",
              "string",
              "string"
            ],
            "message": "string",
            "statusCode": "MATCH_SERVICE_UNAVAILABLE_ERROR"
          },
          {
            "extendedErrorDetails": [
              {
                "extendedErrorCode": "SUBFLOW_OUTPUT_REFERENCES_FIELD_ON_SOBJECT_VARIABLE"
              },
              {
                "extendedErrorCode": "APEX_CLASS_VARIABLE_NOT_FOUND"
              }
            ],
            "fields": [
              "string",
              "string",
              "string",
              "string",
              "string",
              "string",
              "string",
              "string"
            ],
            "message": "string",
            "statusCode": "MATCH_OPERATION_UNKNOWN_RULE_ERROR"
          },
          {
            "extendedErrorDetails": [
              {
                "extendedErrorCode": "TYPE_MAPPING_NAME_MISSING"
              },
              {
                "extendedErrorCode": "SYSTEM_MODE_NOT_ALLOWED"
              },
              {
                "extendedErrorCode": "SORT_LIMIT_INVALID"
              },
              {
                "extendedErrorCode": "SURVEY_START_ELEMENT_INVALID"
              },
              {
                "extendedErrorCode": "FIELDSERVICE_UNSUPPORTED_FIELD_TYPE"
              },
              {
                "extendedErrorCode": "OUTPUTPARAM_MISMATCHED_OBJECTTYPE"
              }
            ],
            "fields": [
              "string"
            ],
            "message": "string",
            "statusCode": "SHARE_NEEDED_FOR_CHILD_OWNER"
          }
        ],
        "success": false
      },
      {
        "bodyResults": [
          {
            "errors": [
              {
                "fieldName": "string",
                "message": "string",
                "offset": 3,
                "statusCode": "ENTITY_IS_LOCKED"
              },
              {
                "fieldName": "string",
                "message": "string",
                "offset": 2,
                "statusCode": "CHILD_SHARE_FAILS_PARENT"
              },
              {
                "fieldName": "string",
                "message": "string",
                "offset": 9,
                "statusCode": "NO_MASS_MAIL_PERMISSION"
              },
              {
                "fieldName": "string",
                "message": "string",
                "offset": 1,
                "statusCode": "EMAIL_EXTERNAL_TRANSPORT_UNKNOWN_ERROR"
              },
              {
                "fieldName": "string",
                "message": "string",
                "offset": 8,
                "statusCode": "SUBDOMAIN_IN_USE"
              },
              {
                "fieldName": "string",
                "message": "string",
                "offset": 2,
                "statusCode": "XCLEAN_DJ_MATCH_UNKNOWN_ERROR"
              },
              {
                "fieldName": "string",
                "message": "string",
                "offset": 7,
                "statusCode": "NO_SUCH_USER_EXISTS"
              }
            ],
            "mergedBody": "string",
            "success": false
          }
        ],
        "errors": [
          {
            "extendedErrorDetails": [
              {
                "extendedErrorCode": "SUBFLOW_INVALID_REFERENCE"
              }
            ],
            "fields": [
              "string",
              "string",
              "string",
              "string",
              "string",
              "string"
            ],
            "message": "string",
            "statusCode": "MAX_RULES_EXCEEDED"
          }
        ],
        "success": false
      },
      {
        "bodyResults": [
          {
            "errors": [
              {
                "fieldName": "string",
                "message": "string",
                "offset": 4,
                "statusCode": "CANNOT_ENABLE_IP_RESTRICT_REQUESTS"
              },
              {
                "fieldName": "string",
                "message": "string",
                "offset": 2,
                "statusCode": "PAYLOAD_SIZE_EXCEEDED"
              },
              {
                "fieldName": "string",
                "message": "string",
                "offset": 2,
                "statusCode": "USER_WITH_APEX_SHARES_EXCEPTION"
              },
              {
                "fieldName": "string",
                "message": "string",
                "offset": 7,
                "statusCode": "REQUEST_RUNNING_TOO_LONG"
              },
              {
                "fieldName": "string",
                "message": "string",
                "offset": 10,
                "statusCode": "INVALID_ENVIRONMENT_HUB_MEMBER"
              },
              {
                "fieldName": "string",
                "message": "string",
                "offset": 9,
                "statusCode": "SALESFORCE_INBOX_TRANSPORT_INVALID_INPUT_ERROR"
              },
              {
                "fieldName": "string",
                "message": "string",
                "offset": 7,
                "statusCode": "TEXT_DATA_OUTSIDE_SUPPORTED_CHARSET"
              }
            ],
            "mergedBody": "string",
            "success": false
          },
          {
            "errors": [
              {
                "fieldName": "string",
                "message": "string",
                "offset": 5,
                "statusCode": "MERGE_FAILED"
              },
              {
                "fieldName": "string",
                "message": "string",
                "offset": 3,
                "statusCode": "UNABLE_TO_LOCK_ROW"
              },
              {
                "fieldName": "string",
                "message": "string",
                "offset": 3,
                "statusCode": "MAX_ACTIONS_PER_RULE_EXCEEDED"
              },
              {
                "fieldName": "string",
                "message": "string",
                "offset": 4,
                "statusCode": "DATAASSESSMENT_CONFIG_ASSESSMENT_IN_PROGRESS_ERROR"
              },
              {
                "fieldName": "string",
                "message": "string",
                "offset": 8,
                "statusCode": "INVALID_OPERATOR"
              }
            ],
            "mergedBody": "string",
            "success": false
          },
          {
            "errors": [
              {
                "fieldName": "string",
                "message": "string",
                "offset": 9,
                "statusCode": "INVALID_TYPE_ON_FIELD_IN_RECORD"
              },
              {
                "fieldName": "string",
                "message": "string",
                "offset": 9,
                "statusCode": "CANNOT_CHANGE_FIELD_TYPE_OF_REFERENCED_FIELD"
              },
              {
                "fieldName": "string",
                "message": "string",
                "offset": 2,
                "statusCode": "INVALID_CREDIT_CARD_INFO"
              },
              {
                "fieldName": "string",
                "message": "string",
                "offset": 6,
                "statusCode": "BAD_CUSTOM_ENTITY_PARENT_DOMAIN"
              },
              {
                "fieldName": "string",
                "message": "string",
                "offset": 5,
                "statusCode": "AUTH_PROVIDER_NEEDS_AUTH"
              },
              {
                "fieldName": "string",
                "message": "string",
                "offset": 9,
                "statusCode": "XCLEAN_DJ_MATCH_UNKNOWN_ERROR"
              },
              {
                "fieldName": "string",
                "message": "string",
                "offset": 7,
                "statusCode": "INVALID_ENTITY_FOR_MATCH_OPERATION_ERROR"
              },
              {
                "fieldName": "string",
                "message": "string",
                "offset": 6,
                "statusCode": "TOO_MANY_ENUM_VALUE"
              },
              {
                "fieldName": "string",
                "message": "string",
                "offset": 1,
                "statusCode": "FIELD_MODERATION_RULE_BLOCK"
              }
            ],
            "mergedBody": "string",
            "success": false
          },
          {
            "errors": [
              {
                "fieldName": "string",
                "message": "string",
                "offset": 4,
                "statusCode": "INVALID_RUNTIME_VALUE"
              },
              {
                "fieldName": "string",
                "message": "string",
                "offset": 8,
                "statusCode": "DELETE_FAILED"
              },
              {
                "fieldName": "string",
                "message": "string",
                "offset": 2,
                "statusCode": "INVALID_ASSIGNMENT_RULE"
              },
              {
                "fieldName": "string",
                "message": "string",
                "offset": 9,
                "statusCode": "CUSTOM_APEX_ERROR"
              }
            ],
            "mergedBody": "string",
            "success": true
          },
          {
            "errors": [
              {
                "fieldName": "string",
                "message": "string",
                "offset": 4,
                "statusCode": "PROCESSING_HALTED"
              },
              {
                "fieldName": "string",
                "message": "string",
                "offset": 3,
                "statusCode": "REQUIRE_RUNAS_USER"
              },
              {
                "fieldName": "string",
                "message": "string",
                "offset": 7,
                "statusCode": "INVALID_INET_ADDRESS"
              },
              {
                "fieldName": "string",
                "message": "string",
                "offset": 6,
                "statusCode": "INSUFFICIENT_ACCESS_TO_INSIGHTSEXTERNALDATA"
              },
              {
                "fieldName": "string",
                "message": "string",
                "offset": 8,
                "statusCode": "CANNOT_FREEZE_SELF"
              },
              {
                "fieldName": "string",
                "message": "string",
                "offset": 10,
                "statusCode": "ORDER_MANAGEMENT_RECORD_NOT_FOUND"
              }
            ],
            "mergedBody": "string",
            "success": true
          },
          {
            "errors": [
              {
                "fieldName": "string",
                "message": "string",
                "offset": 10,
                "statusCode": "MATCH_OPERATION_INVALID_RULE_ERROR"
              },
              {
                "fieldName": "string",
                "message": "string",
                "offset": 10,
                "statusCode": "ASSIGNEE_TYPE_REQUIRED"
              },
              {
                "fieldName": "string",
                "message": "string",
                "offset": 8,
                "statusCode": "EMPTY_SCONTROL_FILE_NAME"
              },
              {
                "fieldName": "string",
                "message": "string",
                "offset": 4,
                "statusCode": "PA_URI_SYNTAX_EXCEPTION"
              },
              {
                "fieldName": "string",
                "message": "string",
                "offset": 9,
                "statusCode": "MAXIMUM_DASHBOARD_COMPONENTS_EXCEEDED"
              },
              {
                "fieldName": "string",
                "message": "string",
                "offset": 10,
                "statusCode": "INVALID_PERSON_ACCOUNT_OPERATION"
              },
              {
                "fieldName": "string",
                "message": "string",
                "offset": 3,
                "statusCode": "RETRIEVE_EXCHANGE_EMAIL_FAILED"
              }
            ],
            "mergedBody": "string",
            "success": false
          },
          {
            "errors": [
              {
                "fieldName": "string",
                "message": "string",
                "offset": 2,
                "statusCode": "WEBLINK_URL_INVALID"
              },
              {
                "fieldName": "string",
                "message": "string",
                "offset": 5,
                "statusCode": "NO_TOKEN_ENDPOINT"
              },
              {
                "fieldName": "string",
                "message": "string",
                "offset": 6,
                "statusCode": "INVALID_TYPE"
              },
              {
                "fieldName": "string",
                "message": "string",
                "offset": 2,
                "statusCode": "INVALID_NAMESPACE_PREFIX"
              },
              {
                "fieldName": "string",
                "message": "string",
                "offset": 6,
                "statusCode": "OPERATION_ENQUEUED"
              },
              {
                "fieldName": "string",
                "message": "string",
                "offset": 8,
                "statusCode": "CANNOT_POST_TO_ARCHIVED_GROUP"
              }
            ],
            "mergedBody": "string",
            "success": true
          },
          {
            "errors": [
              {
                "fieldName": "string",
                "message": "string",
                "offset": 10,
                "statusCode": "DUPLICATES_DETECTED"
              },
              {
                "fieldName": "string",
                "message": "string",
                "offset": 5,
                "statusCode": "TOO_MANY_POSSIBLE_USERS_EXIST"
              },
              {
                "fieldName": "string",
                "message": "string",
                "offset": 10,
                "statusCode": "INVALID_ENTITY_FOR_UPSERT"
              },
              {
                "fieldName": "string",
                "message": "string",
                "offset": 1,
                "statusCode": "CLEAN_SERVICE_ERROR"
              }
            ],
            "mergedBody": "string",
            "success": false
          }
        ],
        "errors": [
          {
            "extendedErrorDetails": [
              {
                "extendedErrorCode": "SCREENRULE_ACTION_INVALID_VALUE"
              },
              {
                "extendedErrorCode": "SCREEN_MISSING_FOOTER_AND_LIGHTNING_COMPONENT"
              },
              {
                "extendedErrorCode": "ASSIGNMENTITEM_INVALID_VALUE"
              },
              {
                "extendedErrorCode": "SCREENFIELD_BOOLEAN_ISREQUIRED_IS_FALSE"
              },
              {
                "extendedErrorCode": "LOOP_ASSIGNNEXTVALUETO_MISSING"
              },
              {
                "extendedErrorCode": "WORKFLOW_OBJECTVARIABLE_DOESNT_SUPPORT_INPUT"
              },
              {
                "extendedErrorCode": "SCREENFIELD_API_VERSION_NOT_SUPPORTED"
              },
              {
                "extendedErrorCode": "OBJECT_CANNOT_BE_UPDATED"
              }
            ],
            "fields": [
              "string",
              "string"
            ],
            "message": "string",
            "statusCode": "FIELD_MODERATION_RULE_BLOCK"
          },
          {
            "extendedErrorDetails": [
              {
                "extendedErrorCode": "ELEMENT_NEVER_USED"
              },
              {
                "extendedErrorCode": "FLOW_INTERVIEW_INVALID_START_REQUEST"
              },
              {
                "extendedErrorCode": "ASSIGNMENTITEM_INVALID_DATATYPE_IN_ELEMENT"
              },
              {
                "extendedErrorCode": "STAGE_NAME_NOT_FULLY_QUALIFIED"
              },
              {
                "extendedErrorCode": "SCREENRULE_ACTION_INVALID_ATTRIBUTE"
              },
              {
                "extendedErrorCode": "EXTERNAL_OBJECTS_NOT_SUPPORTED"
              },
              {
                "extendedErrorCode": "SYSTEM_MODE_NOT_ALLOWED"
              },
              {
                "extendedErrorCode": "ACTIONCALL_MISSING_NAME"
              },
              {
                "extendedErrorCode": "FIELDASSIGNMENT_REFERENCED_ELEMENT_MISSING_DATATYPE"
              },
              {
                "extendedErrorCode": "SURVEY_ELEMENT_NEVER_REACHED"
              }
            ],
            "fields": [
              "string",
              "string",
              "string",
              "string"
            ],
            "message": "string",
            "statusCode": "UNVERIFIED_SENDER_ADDRESS"
          },
          {
            "extendedErrorDetails": [
              {
                "extendedErrorCode": "LOOP_ASSIGNNEXTVALUETO_MISSING"
              },
              {
                "extendedErrorCode": "FIELDASSIGNMENT_INVALID_DATATYPE"
              },
              {
                "extendedErrorCode": "AUTOLAUNCHED_SUBFLOW_INCOMPATIBLE_FLOWTYPE"
              },
              {
                "extendedErrorCode": "FIELDASSIGNMENT_INVALID_ELEMENT"
              },
              {
                "extendedErrorCode": "CONDITION_BUILDER_MISSING_REQUIRED_PERMISSIONS"
              },
              {
                "extendedErrorCode": "SCREENRULE_ACTION_MISSING_ATTRIBUTE"
              },
              {
                "extendedErrorCode": "SUBFLOW_PROCESS_TYPE_INCOMPATIBLE"
              }
            ],
            "fields": [
              "string",
              "string",
              "string",
              "string",
              "string",
              "string"
            ],
            "message": "string",
            "statusCode": "CIRCULAR_DEPENDENCY"
          }
        ],
        "success": false
      },
      {
        "bodyResults": [
          {
            "errors": [
              {
                "fieldName": "string",
                "message": "string",
                "offset": 2,
                "statusCode": "ENTITY_IS_DELETED"
              },
              {
                "fieldName": "string",
                "message": "string",
                "offset": 10,
                "statusCode": "INVALID_ACCESS_TOKEN"
              },
              {
                "fieldName": "string",
                "message": "string",
                "offset": 10,
                "statusCode": "PAL_INVALID_PARAMETERS"
              },
              {
                "fieldName": "string",
                "message": "string",
                "offset": 8,
                "statusCode": "CUSTOM_METADATA_LIMIT_EXCEEDED"
              },
              {
                "fieldName": "string",
                "message": "string",
                "offset": 4,
                "statusCode": "MATCH_OPERATION_MISSING_ENGINE_ERROR"
              }
            ],
            "mergedBody": "string",
            "success": false
          },
          {
            "errors": [
              {
                "fieldName": "string",
                "message": "string",
                "offset": 4,
                "statusCode": "CANNOT_CREATE_ANOTHER_MANAGED_PACKAGE"
              },
              {
                "fieldName": "string",
                "message": "string",
                "offset": 3,
                "statusCode": "INVALID_SAVE_AS_ACTIVITY_FLAG"
              },
              {
                "fieldName": "string",
                "message": "string",
                "offset": 8,
                "statusCode": "UNKNOWN_EXCEPTION"
              },
              {
                "fieldName": "string",
                "message": "string",
                "offset": 5,
                "statusCode": "CLONE_NOT_SUPPORTED"
              },
              {
                "fieldName": "string",
                "message": "string",
                "offset": 2,
                "statusCode": "INVALID_SIGNUP_COUNTRY"
              },
              {
                "fieldName": "string",
                "message": "string",
                "offset": 8,
                "statusCode": "INVALID_BATCH_OPERATION"
              },
              {
                "fieldName": "string",
                "message": "string",
                "offset": 10,
                "statusCode": "WRONG_CONTROLLER_TYPE"
              },
              {
                "fieldName": "string",
                "message": "string",
                "offset": 5,
                "statusCode": "CANNOT_MODIFY_MANAGED_OBJECT"
              },
              {
                "fieldName": "string",
                "message": "string",
                "offset": 2,
                "statusCode": "DUPLICATE_DEVELOPER_NAME"
              },
              {
                "fieldName": "string",
                "message": "string",
                "offset": 5,
                "statusCode": "TEMPLATE_NOT_FOUND"
              }
            ],
            "mergedBody": "string",
            "success": false
          },
          {
            "errors": [
              {
                "fieldName": "string",
                "message": "string",
                "offset": 1,
                "statusCode": "MAX_TM_RULE_ITEMS_EXCEEDED"
              },
              {
                "fieldName": "string",
                "message": "string",
                "offset": 8,
                "statusCode": "TEMPLATE_NOT_FOUND"
              },
              {
                "fieldName": "string",
                "message": "string",
                "offset": 2,
                "statusCode": "CANNOT_RENAME_APEX_REFERENCED_FIELD"
              }
            ],
            "mergedBody": "string",
            "success": true
          },
          {
            "errors": [
              {
                "fieldName": "string",
                "message": "string",
                "offset": 2,
                "statusCode": "COLLISION_DETECTED"
              },
              {
                "fieldName": "string",
                "message": "string",
                "offset": 9,
                "statusCode": "APEX_DATA_ACCESS_RESTRICTION"
              }
            ],
            "mergedBody": "string",
            "success": false
          }
        ],
        "errors": [
          {
            "extendedErrorDetails": [
              {
                "extendedErrorCode": "RECORDFILTER_INVALID_OPERATOR"
              },
              {
                "extendedErrorCode": "ELEMENT_INVALID_REFERENCE"
              },
              {
                "extendedErrorCode": "SETTING_FIELD_VALUE_MAKES_OTHER_FIELD_UNSUPPORTED"
              },
              {
                "extendedErrorCode": "TYPE_MAPPING_NOT_SUPPORTED_FOR_API_VERSION"
              },
              {
                "extendedErrorCode": "EXTERNAL_OBJECT_FIELDS_NOT_SUPPORTED"
              },
              {
                "extendedErrorCode": "SCREEN_PAUSEDTEXT_NOT_SHOWN_WHEN_ALLOWPAUSE_IS_FALSE"
              }
            ],
            "fields": [
              "string",
              "string",
              "string",
              "string",
              "string",
              "string",
              "string",
              "string"
            ],
            "message": "string",
            "statusCode": "TOO_MANY_POSSIBLE_USERS_EXIST"
          },
          {
            "extendedErrorDetails": [
              {
                "extendedErrorCode": "FIELDASSIGNMENT_INVALID_REFERENCE"
              },
              {
                "extendedErrorCode": "FLOW_INTERVIEW_INVALID_CHOICE_USER_INPUT"
              },
              {
                "extendedErrorCode": "WAITEVENT_OUTPUT_NOT_SUPPORTED_FOR_EVENTTYPE"
              },
              {
                "extendedErrorCode": "SUBFLOW_INPUT_INVALID_VALUE"
              },
              {
                "extendedErrorCode": "FLEXIPAGE_COMPONENT_MAX_LIMIT_EXCEPTION"
              },
              {
                "extendedErrorCode": "WAITEVENT_DUPLICATE_INPUT_PARAM"
              },
              {
                "extendedErrorCode": "FIELDASSIGNMENT_INVALID_ELEMENT"
              },
              {
                "extendedErrorCode": "VARIABLE_FIELD_NOT_SUPPORTED_FOR_DATATYPE"
              },
              {
                "extendedErrorCode": "SUBFLOW_OUTPUT_MISSING_NAME"
              }
            ],
            "fields": [
              "string",
              "string"
            ],
            "message": "string",
            "statusCode": "INVALID_ENTITY_FOR_MATCH_OPERATION_ERROR"
          },
          {
            "extendedErrorDetails": [
              {
                "extendedErrorCode": "WAITEVENT_RELATIVEALARM_INVALID_OFFSETNUMBER"
              },
              {
                "extendedErrorCode": "RECORDUPDATE_MISSING_FILTERS"
              },
              {
                "extendedErrorCode": "SCREENRULE_ATTRIBUTE_NOT_SUPPORTED_FOR_SCREENFIELD"
              },
              {
                "extendedErrorCode": "SCREENFIELD_EXTENSION_OUTPUT_ATTRIBUTE_INVALID"
              },
              {
                "extendedErrorCode": "CUSTOMEVENT_PROCESSMETADATAVALUES_MISSING_NAME"
              }
            ],
            "fields": [
              "string",
              "string",
              "string",
              "string",
              "string",
              "string",
              "string",
              "string"
            ],
            "message": "string",
            "statusCode": "INVALID_TYPE"
          },
          {
            "extendedErrorDetails": [
              {
                "extendedErrorCode": "SURVEY_NONSURVEY_SUBFLOWS"
              },
              {
                "extendedErrorCode": "SCREENRULE_FIELD_NOT_FOUND_ON_SCREEN"
              },
              {
                "extendedErrorCode": "SYSTEM_MODE_NOT_ALLOWED"
              },
              {
                "extendedErrorCode": "SUBFLOW_OUTPUT_INCOMPATIBLE_DATATYPES"
              },
              {
                "extendedErrorCode": "OUTPUTPARAM_INCOMPATIBLE_DATATYPE"
              },
              {
                "extendedErrorCode": "DATA_TYPE_NOT_SUPPORTED_FOR_PROCESSTYPE"
              }
            ],
            "fields": [
              "string",
              "string",
              "string",
              "string",
              "string"
            ],
            "message": "string",
            "statusCode": "PA_API_EXCEPTION"
          },
          {
            "extendedErrorDetails": [
              {
                "extendedErrorCode": "INPUTPARAM_INCOMPATIBLE_WITH_NONCOLLECTION_VARIABLE"
              },
              {
                "extendedErrorCode": "ACTIONCALL_MISSING_NAME"
              },
              {
                "extendedErrorCode": "SURVEY_CHOICE_NOT_REFERENCED_BY_A_QUESTION"
              },
              {
                "extendedErrorCode": "ELEMENT_SCALE_SMALLER_THAN_DEFAULTVALUE"
              },
              {
                "extendedErrorCode": "FLEXIPAGE_COMPONENT_ATTRIBUTE_GENERIC_EXCEPTION"
              },
              {
                "extendedErrorCode": "ELEMENT_INVALID_CONNECTOR"
              }
            ],
            "fields": [
              "string",
              "string",
              "string",
              "string"
            ],
            "message": "string",
            "statusCode": "CHILD_SHARE_FAILS_PARENT"
          },
          {
            "extendedErrorDetails": [
              {
                "extendedErrorCode": "AUTOLAUNCHED_CHOICE_NOT_SUPPORTED"
              },
              {
                "extendedErrorCode": "ASSIGNMENTITEM_INVALID_COLLECTION"
              },
              {
                "extendedErrorCode": "APEXCALLOUT_NOT_FOUND"
              },
              {
                "extendedErrorCode": "TRIGGER_TYPE_CONTEXT_OBJECT_NOT_SUPPORTED"
              },
              {
                "extendedErrorCode": "WAITEVENT_INVALID_CONDITION_LOGIC"
              },
              {
                "extendedErrorCode": "OBJECT_CANNOT_BE_UPDATED"
              },
              {
                "extendedErrorCode": "FIELD_VALUE_REQUIRES_PERM"
              },
              {
                "extendedErrorCode": "CONDITION_OPERATOR_INCOMPATIBLE"
              }
            ],
            "fields": [
              "string",
              "string",
              "string",
              "string",
              "string",
              "string",
              "string",
              "string"
            ],
            "message": "string",
            "statusCode": "MAX_LIMIT_EXCEEDED"
          },
          {
            "extendedErrorDetails": [
              {
                "extendedErrorCode": "FLEXIPAGE_COMPONENT_MAX_LIMIT_EXCEPTION"
              },
              {
                "extendedErrorCode": "SOBJECT_ELEMENT_INCOMPATIBLE_DATATYPE"
              },
              {
                "extendedErrorCode": "WORKFLOW_RECURSIVECOUNTVARIABLE_DOESNT_SUPPORT_INPUT"
              },
              {
                "extendedErrorCode": "LOOP_ASSIGNNEXTVALUETO_MISMATCHED_OBJECTTYPE"
              },
              {
                "extendedErrorCode": "OUTPUTPARAM_INCOMPATIBLE_DATATYPE"
              },
              {
                "extendedErrorCode": "APEXCALLOUT_NOT_FOUND"
              }
            ],
            "fields": [
              "string",
              "string",
              "string",
              "string"
            ],
            "message": "string",
            "statusCode": "UNAVAILABLE_REF"
          }
        ],
        "success": true
      },
      {
        "bodyResults": [
          {
            "errors": [
              {
                "fieldName": "string",
                "message": "string",
                "offset": 6,
                "statusCode": "MATCH_OPERATION_MISSING_RULE_ERROR"
              },
              {
                "fieldName": "string",
                "message": "string",
                "offset": 3,
                "statusCode": "DELETE_REQUIRED_ON_CASCADE"
              },
              {
                "fieldName": "string",
                "message": "string",
                "offset": 4,
                "statusCode": "INSUFFICIENT_ACCESS_TO_INSIGHTSEXTERNALDATA"
              },
              {
                "fieldName": "string",
                "message": "string",
                "offset": 6,
                "statusCode": "CANNOT_DISABLE_LAST_ADMIN"
              },
              {
                "fieldName": "string",
                "message": "string",
                "offset": 10,
                "statusCode": "INVALID_EMPTY_KEY_OWNER"
              }
            ],
            "mergedBody": "string",
            "success": false
          },
          {
            "errors": [
              {
                "fieldName": "string",
                "message": "string",
                "offset": 5,
                "statusCode": "PROCESSING_HALTED"
              }
            ],
            "mergedBody": "string",
            "success": false
          },
          {
            "errors": [
              {
                "fieldName": "string",
                "message": "string",
                "offset": 7,
                "statusCode": "INVALID_SESSION_ID"
              },
              {
                "fieldName": "string",
                "message": "string",
                "offset": 9,
                "statusCode": "INVALID_TEXT_REPRESENTATION"
              },
              {
                "fieldName": "string",
                "message": "string",
                "offset": 2,
                "statusCode": "INVALID_READ_ONLY_USER_DML"
              },
              {
                "fieldName": "string",
                "message": "string",
                "offset": 6,
                "statusCode": "ORDER_MANAGEMENT_RECORD_NOT_FOUND"
              }
            ],
            "mergedBody": "string",
            "success": true
          },
          {
            "errors": [
              {
                "fieldName": "string",
                "message": "string",
                "offset": 5,
                "statusCode": "CANNOT_DELETE_LAST_DATED_CONVERSION_RATE"
              },
              {
                "fieldName": "string",
                "message": "string",
                "offset": 5,
                "statusCode": "LIMIT_EXCEEDED"
              },
              {
                "fieldName": "string",
                "message": "string",
                "offset": 9,
                "statusCode": "XCLEAN_DJ_MATCH_UNKNOWN_ERROR"
              },
              {
                "fieldName": "string",
                "message": "string",
                "offset": 8,
                "statusCode": "ENVIRONMENT_HUB_MEMBERSHIP_USER_NOT_ORG_ADMIN"
              },
              {
                "fieldName": "string",
                "message": "string",
                "offset": 7,
                "statusCode": "INVALID_ENTITY_FOR_MATCH_ENGINE_ERROR"
              },
              {
                "fieldName": "string",
                "message": "string",
                "offset": 2,
                "statusCode": "SOCIAL_POST_INVALID"
              }
            ],
            "mergedBody": "string",
            "success": true
          },
          {
            "errors": [
              {
                "fieldName": "string",
                "message": "string",
                "offset": 3,
                "statusCode": "NO_ACCESS_TOKEN_FROM_REFRESH"
              },
              {
                "fieldName": "string",
                "message": "string",
                "offset": 2,
                "statusCode": "CUSTOM_METADATA_LIMIT_EXCEEDED"
              }
            ],
            "mergedBody": "string",
            "success": true
          },
          {
            "errors": [
              {
                "fieldName": "string",
                "message": "string",
                "offset": 10,
                "statusCode": "INVALID_OR_NULL_FOR_RESTRICTED_PICKLIST"
              },
              {
                "fieldName": "string",
                "message": "string",
                "offset": 10,
                "statusCode": "CHILD_SHARE_FAILS_PARENT"
              },
              {
                "fieldName": "string",
                "message": "string",
                "offset": 6,
                "statusCode": "EMAIL_TEMPLATE_MERGEFIELD_ACCESS_ERROR"
              },
              {
                "fieldName": "string",
                "message": "string",
                "offset": 5,
                "statusCode": "INVALID_TYPE_FOR_OPERATION"
              }
            ],
            "mergedBody": "string",
            "success": false
          }
        ],
        "errors": [
          {
            "extendedErrorDetails": [
              {
                "extendedErrorCode": "FLEXIPAGE_TEMPLATE_INVALID_SWITCH"
              },
              {
                "extendedErrorCode": "CUSTOMEVENT_OBJECTTYPE_NOT_FOUND"
              },
              {
                "extendedErrorCode": "ACTIONCALL_NOT_SUPPORTED_FOR_PROCESSTYPE"
              },
              {
                "extendedErrorCode": "ACTIONCALL_MISSING_REQUIRED_TYPE"
              },
              {
                "extendedErrorCode": "RECORDFILTER_MULTIPLE_QUERIES_SAME_FIELD"
              },
              {
                "extendedErrorCode": "BOTH_START_NODE_AND_REFERENCE_FOUND"
              },
              {
                "extendedErrorCode": "SUBFLOW_OUTPUT_INCOMPATIBLE_DATATYPES"
              },
              {
                "extendedErrorCode": "SYSTEM_MODE_NOT_ALLOWED"
              },
              {
                "extendedErrorCode": "RECOMMENDATION_STRATEGY_EXCEPTION"
              }
            ],
            "fields": [
              "string"
            ],
            "message": "string",
            "statusCode": "MATCH_OPERATION_MISSING_OBJECT_TYPE_ERROR"
          },
          {
            "extendedErrorDetails": [
              {
                "extendedErrorCode": "SCREENFIELD_EXTENSION_OUTPUT_ATTRIBUTE_INVALID"
              },
              {
                "extendedErrorCode": "WORKFLOW_PROCESS_METADATAVALUES_MISSING_NAME"
              },
              {
                "extendedErrorCode": "LOOP_MISSING_COLLECTION"
              },
              {
                "extendedErrorCode": "SCREENRULE_ACTION_MISSING_FIELDREFERENCE"
              }
            ],
            "fields": [
              "string"
            ],
            "message": "string",
            "statusCode": "MAX_DEPTH_IN_FLOW_EXECUTION"
          },
          {
            "extendedErrorDetails": [
              {
                "extendedErrorCode": "SCREENRULE_FIELD_NOT_FOUND_ON_SCREEN"
              },
              {
                "extendedErrorCode": "ASSIGNMENTITEM_INVALID_COLLECTION"
              },
              {
                "extendedErrorCode": "SUBFLOW_OUTPUT_MISMATCHED_COLLECTIONTYPES"
              },
              {
                "extendedErrorCode": "CHOICEFIELD_DEFAULT_CHOICE_NOT_FOUND"
              },
              {
                "extendedErrorCode": "FLOW_INTERVIEW_LIMIT_EXCEEDED"
              },
              {
                "extendedErrorCode": "PROCESSMETADATAVALUE_NONEXISTENT_ELEMENT"
              }
            ],
            "fields": [
              "string",
              "string",
              "string",
              "string",
              "string",
              "string",
              "string"
            ],
            "message": "string",
            "statusCode": "PRIVATE_CONTACT_ON_ASSET"
          },
          {
            "extendedErrorDetails": [
              {
                "extendedErrorCode": "SUBFLOW_MISSING_NAME"
              },
              {
                "extendedErrorCode": "RECOMMENDATION_STRATEGY_EXCEPTION"
              },
              {
                "extendedErrorCode": "SUBFLOW_MISSING_NAME"
              }
            ],
            "fields": [
              "string",
              "string",
              "string"
            ],
            "message": "string",
            "statusCode": "SOCIAL_ACCOUNT_NOT_FOUND"
          }
        ],
        "success": true
      },
      {
        "bodyResults": [
          {
            "errors": [
              {
                "fieldName": "string",
                "message": "string",
                "offset": 10,
                "statusCode": "AURA_COMPILE_ERROR"
              },
              {
                "fieldName": "string",
                "message": "string",
                "offset": 3,
                "statusCode": "INVALID_INPUT"
              },
              {
                "fieldName": "string",
                "message": "string",
                "offset": 9,
                "statusCode": "PAL_INVALID_LAYOUT_ID"
              },
              {
                "fieldName": "string",
                "message": "string",
                "offset": 6,
                "statusCode": "UNAVAILABLE_REF"
              },
              {
                "fieldName": "string",
                "message": "string",
                "offset": 8,
                "statusCode": "INVALID_PAYLOAD_VERSION"
              },
              {
                "fieldName": "string",
                "message": "string",
                "offset": 7,
                "statusCode": "PALI_INVALID_ACTION_ID"
              }
            ],
            "mergedBody": "string",
            "success": true
          },
          {
            "errors": [
              {
                "fieldName": "string",
                "message": "string",
                "offset": 3,
                "statusCode": "ENVIRONMENT_HUB_MEMBERSHIP_USER_NOT_ORG_ADMIN"
              },
              {
                "fieldName": "string",
                "message": "string",
                "offset": 10,
                "statusCode": "EMAIL_TEMPLATE_MERGEFIELD_ERROR"
              },
              {
                "fieldName": "string",
                "message": "string",
                "offset": 1,
                "statusCode": "CANNOT_PASSWORD_LOCKOUT"
              },
              {
                "fieldName": "string",
                "message": "string",
                "offset": 3,
                "statusCode": "INVALID_AUTH_HEADER"
              },
              {
                "fieldName": "string",
                "message": "string",
                "offset": 2,
                "statusCode": "SELF_REFERENCE_FROM_FLOW"
              },
              {
                "fieldName": "string",
                "message": "string",
                "offset": 8,
                "statusCode": "TOO_MANY_JOBS"
              },
              {
                "fieldName": "string",
                "message": "string",
                "offset": 2,
                "statusCode": "UNSPECIFIED_EMAIL_ADDRESS"
              },
              {
                "fieldName": "string",
                "message": "string",
                "offset": 3,
                "statusCode": "PAL_INVALID_LAYOUT_ID"
              }
            ],
            "mergedBody": "string",
            "success": false
          },
          {
            "errors": [
              {
                "fieldName": "string",
                "message": "string",
                "offset": 3,
                "statusCode": "METADATA_FIELD_UPDATE_ERROR"
              },
              {
                "fieldName": "string",
                "message": "string",
                "offset": 5,
                "statusCode": "PLATFORM_EVENT_PUBLISHING_UNAVAILABLE"
              },
              {
                "fieldName": "string",
                "message": "string",
                "offset": 4,
                "statusCode": "XCLEAN_DJ_MATCH_UNKNOWN_ERROR"
              }
            ],
            "mergedBody": "string",
            "success": false
          },
          {
            "errors": [
              {
                "fieldName": "string",
                "message": "string",
                "offset": 2,
                "statusCode": "TEMPLATE_NOT_FOUND"
              },
              {
                "fieldName": "string",
                "message": "string",
                "offset": 5,
                "statusCode": "PACKAGING_API_UNINSTALL_FAILED"
              },
              {
                "fieldName": "string",
                "message": "string",
                "offset": 5,
                "statusCode": "LIMIT_EXCEEDED"
              },
              {
                "fieldName": "string",
                "message": "string",
                "offset": 1,
                "statusCode": "CUSTOM_CLOB_FIELD_LIMIT_EXCEEDED"
              },
              {
                "fieldName": "string",
                "message": "string",
                "offset": 5,
                "statusCode": "CANNOT_ENABLE_IP_RESTRICT_REQUESTS"
              },
              {
                "fieldName": "string",
                "message": "string",
                "offset": 10,
                "statusCode": "PALI_INVALID_ACTION_TYPE"
              }
            ],
            "mergedBody": "string",
            "success": true
          },
          {
            "errors": [
              {
                "fieldName": "string",
                "message": "string",
                "offset": 8,
                "statusCode": "DELETE_REQUIRED_ON_CASCADE"
              },
              {
                "fieldName": "string",
                "message": "string",
                "offset": 3,
                "statusCode": "MAX_LIMIT_EXCEEDED"
              },
              {
                "fieldName": "string",
                "message": "string",
                "offset": 2,
                "statusCode": "INVALID_DATA_URI"
              }
            ],
            "mergedBody": "string",
            "success": true
          },
          {
            "errors": [
              {
                "fieldName": "string",
                "message": "string",
                "offset": 8,
                "statusCode": "ENVIRONMENT_HUB_MEMBERSHIP_ERROR_JOINING_HUB"
              },
              {
                "fieldName": "string",
                "message": "string",
                "offset": 5,
                "statusCode": "SALESFORCE_INBOX_TRANSPORT_INVALID_INPUT_ERROR"
              },
              {
                "fieldName": "string",
                "message": "string",
                "offset": 9,
                "statusCode": "INVALID_PAYLOAD_VERSION"
              },
              {
                "fieldName": "string",
                "message": "string",
                "offset": 2,
                "statusCode": "PACKAGING_API_UNINSTALL_FAILED"
              },
              {
                "fieldName": "string",
                "message": "string",
                "offset": 3,
                "statusCode": "BCC_NOT_ALLOWED_IF_BCC_COMPLIANCE_ENABLED"
              }
            ],
            "mergedBody": "string",
            "success": false
          }
        ],
        "errors": [
          {
            "extendedErrorDetails": [
              {
                "extendedErrorCode": "RECORDLOOKUP_IDASSIGNMENT_VARIABLE_INCOMPATIBLE_DATATYPE"
              },
              {
                "extendedErrorCode": "ASSIGNMENTITEM_INVALID_REFERENCE"
              },
              {
                "extendedErrorCode": "WAITEVENT_MISSING_CONNECTOR"
              },
              {
                "extendedErrorCode": "FORMULA_EXPRESSION_INVALID"
              },
              {
                "extendedErrorCode": "SUBFLOW_INPUT_VARIABLE_NO_INPUT_ACCESS"
              },
              {
                "extendedErrorCode": "SCREEN_MULTISELECTFIELD_DOESNT_SUPPORT_CHOICE_WITH_USERINPUT"
              },
              {
                "extendedErrorCode": "PARAM_DATATYPE_NOT_SUPPORTED"
              },
              {
                "extendedErrorCode": "SORT_ENCRYPTED_FIELDS_NOT_SUPPORTED"
              },
              {
                "extendedErrorCode": "WORKFLOW_PROCESSMETADATAVALUES_MORE_THAN_ONE_NAME"
              }
            ],
            "fields": [
              "string",
              "string"
            ],
            "message": "string",
            "statusCode": "EMAIL_TEMPLATE_FORMULA_ERROR"
          },
          {
            "extendedErrorDetails": [
              {
                "extendedErrorCode": "TYPE_MAPPING_NOT_SUPPORTED"
              },
              {
                "extendedErrorCode": "BOTH_START_NODE_AND_REFERENCE_FOUND"
              },
              {
                "extendedErrorCode": "CONDITION_OPERAND_DATATYPES_INCOMPATIBLE"
              },
              {
                "extendedErrorCode": "APEXCLASS_MISSING_INTERFACE"
              },
              {
                "extendedErrorCode": "SURVEY_NESTED_SUBFLOWS"
              },
              {
                "extendedErrorCode": "AUTOLAUNCHED_WAIT_NOT_SUPPORTED"
              },
              {
                "extendedErrorCode": "SUBFLOW_OUTPUT_TARGET_DOES_NOT_EXIST_IN_MASTER_FLOW"
              },
              {
                "extendedErrorCode": "SUBFLOW_OUTPUT_MISMATCHED_COLLECTIONTYPES"
              },
              {
                "extendedErrorCode": "APEX_CLASS_VARIABLE_NOT_FOUND"
              }
            ],
            "fields": [
              "string",
              "string",
              "string",
              "string",
              "string"
            ],
            "message": "string",
            "statusCode": "NO_MASS_MAIL_PERMISSION"
          },
          {
            "extendedErrorDetails": [
              {
                "extendedErrorCode": "ASSIGNMENTITEM_MODIFIES_NONVARIABLE"
              },
              {
                "extendedErrorCode": "FLOW_INTERVIEW_SET_CHOICE_SELECTED"
              }
            ],
            "fields": [
              "string",
              "string"
            ],
            "message": "string",
            "statusCode": "PALI_INVALID_ACTION_NAME"
          },
          {
            "extendedErrorDetails": [
              {
                "extendedErrorCode": "SPECIFIC_FIELD_VALUE_MAKES_OTHER_FIELD_REQUIRED"
              }
            ],
            "fields": [
              "string",
              "string",
              "string",
              "string",
              "string",
              "string",
              "string",
              "string",
              "string",
              "string"
            ],
            "message": "string",
            "statusCode": "INVALID_CONTENT_TYPE"
          },
          {
            "extendedErrorDetails": [
              {
                "extendedErrorCode": "FLOW_INTERVIEW_RESUME_INTERVIEW"
              },
              {
                "extendedErrorCode": "TYPE_MAPPING_DUPLICATED"
              },
              {
                "extendedErrorCode": "FLOW_SYSTEM_VARIABLE_NOT_SUPPORTED_FOR_TRIGGERTYPE"
              },
              {
                "extendedErrorCode": "WAITEVENT_OBJECT_NOT_SUPPORTED_FOR_EVENTTYPE"
              },
              {
                "extendedErrorCode": "FIELDSERVICE_UNSUPPORTED_FIELD_TYPE"
              },
              {
                "extendedErrorCode": "SUBFLOW_INVALID_NAME"
              },
              {
                "extendedErrorCode": "APEXCALLOUT_INVALID"
              },
              {
                "extendedErrorCode": "LOOP_ASSIGNNEXTVALUETO_MISMATCHED_OBJECTTYPE"
              }
            ],
            "fields": [
              "string",
              "string"
            ],
            "message": "string",
            "statusCode": "FILE_SIZE_LIMIT_EXCEEDED"
          }
        ],
        "success": false
      }
    ]
  }
}