{
  "renderStoredEmailTemplateResponse": {
    "result": {
      "errors": [
        {
          "extendedErrorDetails": [
            {
              "extendedErrorCode": "CONDITION_BUILDER_MISSING_FLOW_VARIABLE"
            },
            {
              "extendedErrorCode": "VARIABLE_FIELD_REQUIRED_FOR_DATATYPE"
            },
            {
              "extendedErrorCode": "DECISION_MISSING_OUTCOME"
            }
          ],
          "fields": [
            "string",
            "string",
            "string",
            "string",
            "string",
            "string"
          ],
          "message": "string",
          "statusCode": "LIGHT_PORTAL_USER_EXCEPTION"
        },
        {
          "extendedErrorDetails": [
            {
              "extendedErrorCode": "OBJECT_NOT_FOUND"
            },
            {
              "extendedErrorCode": "APEXCALLOUT_REQUIRED_INPUT_MISSING"
            },
            {
              "extendedErrorCode": "RECOMMENDATION_STRATEGY_EXCEPTION"
            }
          ],
          "fields": [
            "string",
            "string",
            "string",
            "string",
            "string",
            "string",
            "string",
            "string",
            "string"
          ],
          "message": "string",
          "statusCode": "DUPLICATE_CUSTOM_TAB_MOTIF"
        }
      ],
      "renderedEmail": {
        "bccSender": true,
        "emailPriority": "High",
        "replyTo": "string",
        "saveAsActivity": false,
        "senderDisplayName": "string",
        "subject": "string",
        "useSignature": true,
        "bccAddresses": [
          "string",
          "string",
          "string",
          "string",
          "string",
          "string"
        ],
        "ccAddresses": [
          "string",
          "string",
          "string"
        ],
        "charset": "string",
        "documentAttachments": [
          "string",
          "string"
        ],
        "entityAttachments": [
          "string"
        ],
        "fileAttachments": [
          {
            "body": "string",
            "contentType": "string",
            "fileName": "string",
            "id": "string",
            "inline": true
          }
        ],
        "htmlBody": "string",
        "inReplyTo": "string",
        "optOutPolicy": "REJECT",
        "orgWideEmailAddressId": "string",
        "plainTextBody": "string",
        "references": "string",
        "targetObjectId": "string",
        "templateId": "string",
        "templateName": "string",
        "toAddresses": [
          "string"
        ],
        "treatBodiesAsTemplate": true,
        "treatTargetObjectAsRecipient": true,
        "whatId": "string"
      },
      "success": true
    }
  }
}