{
  "deleteByExampleResponse": {
    "result": [
      {
        "entity": {
          "type": "string",
          "fieldsToNull": [
            "string",
            "string"
          ],
          "Id": "string"
        },
        "errors": [
          {
            "extendedErrorDetails": [
              {
                "extendedErrorCode": "FIELDASSIGNMENT_FIELD_INCOMPATIBLE_DATATYPE"
              },
              {
                "extendedErrorCode": "FLOW_INTERVIEW_SET_CHOICE_SELECTED"
              },
              {
                "extendedErrorCode": "INPUTPARAM_MISMATCHED_OBJECTTYPE"
              },
              {
                "extendedErrorCode": "SUBFLOW_OUTPUT_REFERENCES_FIELD_ON_SOBJECT_VARIABLE"
              },
              {
                "extendedErrorCode": "VALUE_CHAR_LIMIT_EXCEEDED"
              },
              {
                "extendedErrorCode": "ACTIONCALL_MISSING_NAME"
              }
            ],
            "fields": [
              "string",
              "string",
              "string",
              "string"
            ],
            "message": "string",
            "statusCode": "MATCH_DEFINITION_ERROR"
          },
          {
            "extendedErrorDetails": [
              {
                "extendedErrorCode": "ELEMENT_MORE_THAN_ONE_FIELD"
              },
              {
                "extendedErrorCode": "CONDITION_BUILDER_UNSUPPORTED_FLOW_VARIABLE"
              }
            ],
            "fields": [
              "string",
              "string"
            ],
            "message": "string",
            "statusCode": "INVALID_SIGNUP_COUNTRY"
          },
          {
            "extendedErrorDetails": [
              {
                "extendedErrorCode": "RECORDFILTER_ENCRYPTED_FIELDS_NOT_SUPPORTED"
              },
              {
                "extendedErrorCode": "DECISION_MISSING_OUTCOME"
              },
              {
                "extendedErrorCode": "SURVEY_CHOICE_REFERENCED_BY_MULTIPLE_QUESTIONS"
              },
              {
                "extendedErrorCode": "SCREENFIELD_EXTENSION_NAME_MISSING"
              },
              {
                "extendedErrorCode": "WORKFLOW_RECURSIVECOUNTVARIABLE_DOESNT_SUPPORT_INPUT"
              },
              {
                "extendedErrorCode": "OBJECT_ENCRYPTED_FIELDS_NOT_SUPPORTED"
              },
              {
                "extendedErrorCode": "SCREENFIELD_EXTENSION_NAME_MISSING"
              }
            ],
            "fields": [
              "string",
              "string",
              "string",
              "string",
              "string"
            ],
            "message": "string",
            "statusCode": "INVALID_ENTITY_FOR_MATCH_OPERATION_ERROR"
          },
          {
            "extendedErrorDetails": [
              {
                "extendedErrorCode": "SUBFLOW_MASTER_FLOW_TYPE_NOT_AUTOLAUNCHED"
              }
            ],
            "fields": [
              "string",
              "string"
            ],
            "message": "string",
            "statusCode": "USER_WITH_APEX_SHARES_EXCEPTION"
          },
          {
            "extendedErrorDetails": [
              {
                "extendedErrorCode": "CONDITION_OPERATOR_INCOMPATIBLE"
              },
              {
                "extendedErrorCode": "EXTERNAL_OBJECT_FIELDS_NOT_SUPPORTED"
              },
              {
                "extendedErrorCode": "VARIABLE_SCALE_NEGATIVE_INTEGER"
              },
              {
                "extendedErrorCode": "ELEMENT_SCALE_SMALLER_THAN_DEFAULTVALUE"
              },
              {
                "extendedErrorCode": "SCREENFIELD_TYPE_NOT_SUPPORTED"
              },
              {
                "extendedErrorCode": "SCREENFIELD_EXTENSION_INPUT_ATTRIBUTE_INVALID"
              },
              {
                "extendedErrorCode": "APEXCALLOUT_OUTPUT_INCOMPATIBLE_DATATYPE"
              },
              {
                "extendedErrorCode": "WORKFLOW_OBJECTVARIABLE_AND_OLDOBJECTVARIABLE_REFERENCE_SAME_SOBJECT_VARIABLE"
              },
              {
                "extendedErrorCode": "ELEMENT_NEVER_USED"
              }
            ],
            "fields": [
              "string",
              "string",
              "string",
              "string"
            ],
            "message": "string",
            "statusCode": "ORDER_MANAGEMENT_RECORD_EXISTS"
          }
        ],
        "rowCount": 9,
        "success": true
      },
      {
        "entity": {
          "type": "string",
          "fieldsToNull": [
            "string",
            "string",
            "string",
            "string",
            "string",
            "string",
            "string",
            "string",
            "string"
          ],
          "Id": "string"
        },
        "errors": [
          {
            "extendedErrorDetails": [
              {
                "extendedErrorCode": "RECORDFILTER_GEOLOCATION_FIELDS_NOT_SUPPORTED"
              },
              {
                "extendedErrorCode": "CONDITION_LOGIC_MISSING"
              },
              {
                "extendedErrorCode": "SUBFLOW_PROCESS_TYPE_INCOMPATIBLE"
              },
              {
                "extendedErrorCode": "FIELD_VALUE_REQUIRES_PERM"
              },
              {
                "extendedErrorCode": "FLOW_REFERENCES_APEX_CLASS_NOT_IN_SAME_PACKAGE"
              },
              {
                "extendedErrorCode": "SUBFLOW_INPUT_REFERENCES_FIELD_ON_SOBJECT_VARIABLE"
              },
              {
                "extendedErrorCode": "SORT_LIMIT_INVALID"
              }
            ],
            "fields": [
              "string",
              "string",
              "string",
              "string"
            ],
            "message": "string",
            "statusCode": "INVALID_MESSAGE_ID_REFERENCE"
          },
          {
            "extendedErrorDetails": [
              {
                "extendedErrorCode": "CUSTOMEVENT_MISSING_PROCESSMETADATAVALUES"
              },
              {
                "extendedErrorCode": "OBJECTTYPE_INVALID"
              },
              {
                "extendedErrorCode": "INVALID_SURVEY_VARIABLE_NAME_OR_TYPE"
              },
              {
                "extendedErrorCode": "WAITEVENT_INPUT_REQUIRES_LITERAL_VALUE"
              },
              {
                "extendedErrorCode": "VARIABLE_SCALE_NEGATIVE_INTEGER"
              },
              {
                "extendedErrorCode": "PROCESSTYPE_COMPONENTTYPE_NOT_SUPPORTED"
              }
            ],
            "fields": [
              "string",
              "string",
              "string",
              "string",
              "string",
              "string",
              "string",
              "string",
              "string",
              "string"
            ],
            "message": "string",
            "statusCode": "RETRIEVE_GOOGLE_EVENT_FAILED"
          },
          {
            "extendedErrorDetails": [
              {
                "extendedErrorCode": "OUTPUTPARAM_ASSIGNTOREFERENCE_NOTFOUND"
              },
              {
                "extendedErrorCode": "CONDITION_LOGIC_MISSING"
              },
              {
                "extendedErrorCode": "FLOW_STAGE_ORDER_OUT_OF_RANGE"
              },
              {
                "extendedErrorCode": "DECISION_DEFAULT_CONNECTOR_MISSING_LABEL"
              },
              {
                "extendedErrorCode": "SOBJECT_ELEMENT_INCOMPATIBLE_DATATYPE"
              },
              {
                "extendedErrorCode": "FIELDASSIGNMENT_INVALID_DATATYPE"
              },
              {
                "extendedErrorCode": "WAITEVENT_INPUT_REQUIRES_LITERAL_VALUE"
              },
              {
                "extendedErrorCode": "ELEMENT_MISSING_NAME"
              },
              {
                "extendedErrorCode": "CONDITION_LOGIC_EXCEEDS_LIMIT"
              }
            ],
            "fields": [
              "string",
              "string",
              "string"
            ],
            "message": "string",
            "statusCode": "FLOW_EXCEPTION"
          },
          {
            "extendedErrorDetails": [
              {
                "extendedErrorCode": "RULE_MISSING_CONDITION"
              },
              {
                "extendedErrorCode": "WORKFLOW_OBJECTVARIABLE_AND_OLDOBJECTVARIABLE_REFERENCE_SAME_SOBJECT_VARIABLE"
              },
              {
                "extendedErrorCode": "FLEXIPAGE_COMPONENT_ATTRIBUTE_GENERIC_EXCEPTION"
              },
              {
                "extendedErrorCode": "ELEMENT_NEVER_USED"
              },
              {
                "extendedErrorCode": "OBJECT_CANNOT_BE_QUERIED"
              },
              {
                "extendedErrorCode": "FLOW_INTERVIEW_INPUT_VALIDATION"
              }
            ],
            "fields": [
              "string",
              "string",
              "string",
              "string",
              "string",
              "string",
              "string",
              "string"
            ],
            "message": "string",
            "statusCode": "ASSIGNEE_TYPE_REQUIRED"
          },
          {
            "extendedErrorDetails": [
              {
                "extendedErrorCode": "OUTPUTPARAM_MISMATCHED_OBJECTTYPE"
              },
              {
                "extendedErrorCode": "CONDITION_OPERAND_DATATYPES_INCOMPATIBLE"
              },
              {
                "extendedErrorCode": "VISIBILITY_RULE_EXCEEDS_CONDITION_LIMIT"
              },
              {
                "extendedErrorCode": "ASSIGNMENTITEM_RIGHT_DATATYPE_INVALID_FOR_OPERATOR"
              }
            ],
            "fields": [
              "string",
              "string",
              "string",
              "string",
              "string",
              "string"
            ],
            "message": "string",
            "statusCode": "CANT_DISABLE_CORP_CURRENCY"
          }
        ],
        "rowCount": 4,
        "success": true
      }
    ]
  }
}