{
  "mergeResponse": {
    "result": [
      {
        "errors": [
          {
            "extendedErrorDetails": [
              {
                "extendedErrorCode": "ASSIGNMENTITEM_REQUIRED"
              },
              {
                "extendedErrorCode": "OUTPUTPARAM_ASSIGNTOREFERENCE_NOTFOUND"
              },
              {
                "extendedErrorCode": "DATATYPE_INVALID"
              },
              {
                "extendedErrorCode": "SUBFLOW_OUTPUT_INCOMPATIBLE_DATATYPES"
              }
            ],
            "fields": [
              "string",
              "string",
              "string",
              "string",
              "string"
            ],
            "message": "string",
            "statusCode": "ITEM_NOT_FOUND"
          },
          {
            "extendedErrorDetails": [
              {
                "extendedErrorCode": "SURVEY_MULTIPLE_SCREENS_CANNOT_CONNECT_TO_SAME_DECISION"
              },
              {
                "extendedErrorCode": "FLOW_INTERVIEW_INPUT_VALIDATION"
              },
              {
                "extendedErrorCode": "LOOP_ASSIGNNEXTVALUETO_MISMATCHED_DATATYPE"
              },
              {
                "extendedErrorCode": "ASSIGNMENTITEM_ELEMENT_MISSING_DATATYPE"
              },
              {
                "extendedErrorCode": "SCREEN_ALLOWBACK_ALLOWFINISH_BOTH_FALSE"
              },
              {
                "extendedErrorCode": "FLOW_INTERVIEW_RANGE_VALIDATION"
              },
              {
                "extendedErrorCode": "CONDITION_REFERENCED_ELEMENT_NOT_FOUND"
              },
              {
                "extendedErrorCode": "ELEMENT_CONNECTS_TO_SELF"
              },
              {
                "extendedErrorCode": "FLEXIPAGE_COMPONENT_CUSTOM_VALIDATION_EXCEPTION"
              },
              {
                "extendedErrorCode": "SUBFLOW_INPUT_MISMATCHED_COLLECTIONTYPES"
              }
            ],
            "fields": [
              "string",
              "string",
              "string"
            ],
            "message": "string",
            "statusCode": "NUMBER_OUTSIDE_VALID_RANGE"
          },
          {
            "extendedErrorDetails": [
              {
                "extendedErrorCode": "SUBFLOW_DESKTOP_DESIGNER_FLOWS_NOT_SUPPORTED"
              },
              {
                "extendedErrorCode": "ELEMENT_MORE_THAN_ONE_FIELD"
              },
              {
                "extendedErrorCode": "WAITEVENT_REQUIRED_INPUT_MISSING"
              },
              {
                "extendedErrorCode": "DATATYPE_INVALID"
              },
              {
                "extendedErrorCode": "SORT_ORDER_MISSING"
              },
              {
                "extendedErrorCode": "SURVEY_START_ELEMENT_INVALID"
              },
              {
                "extendedErrorCode": "SURVEY_START_ELEMENT_INVALID"
              }
            ],
            "fields": [
              "string",
              "string",
              "string",
              "string",
              "string",
              "string",
              "string"
            ],
            "message": "string",
            "statusCode": "INVALID_EVENT_SUBSCRIPTION"
          },
          {
            "extendedErrorDetails": [
              {
                "extendedErrorCode": "FLOW_INTERVIEW_INTERACTION_NOT_FOUND"
              },
              {
                "extendedErrorCode": "ASSIGNMENTITEM_MODIFIES_NONVARIABLE"
              },
              {
                "extendedErrorCode": "APEXCALLOUT_OUTPUT_INCOMPATIBLE_DATATYPE"
              }
            ],
            "fields": [
              "string",
              "string",
              "string",
              "string",
              "string",
              "string",
              "string",
              "string",
              "string"
            ],
            "message": "string",
            "statusCode": "PACKAGING_API_INSTALL_FAILED"
          }
        ],
        "id": "string",
        "mergedRecordIds": [
          "string",
          "string",
          "string",
          "string",
          "string",
          "string",
          "string",
          "string"
        ],
        "success": true,
        "updatedRelatedIds": [
          "string",
          "string",
          "string",
          "string",
          "string",
          "string",
          "string",
          "string",
          "string",
          "string"
        ]
      },
      {
        "errors": [
          {
            "extendedErrorDetails": [
              {
                "extendedErrorCode": "SUBFLOW_OUTPUT_VARIABLE_NOT_FOUND_IN_REFERENCEDFLOW"
              },
              {
                "extendedErrorCode": "FLOW_INCLUDES_STEP"
              },
              {
                "extendedErrorCode": "SUBFLOW_INPUT_MULTIPLE_ASSIGNMENTS_TO_ONE_VARIABLE"
              },
              {
                "extendedErrorCode": "PROCESSTYPE_NOT_SUPPORTED"
              },
              {
                "extendedErrorCode": "OUTPUTPARAM_INCOMPATIBLE_DATATYPE"
              }
            ],
            "fields": [
              "string"
            ],
            "message": "string",
            "statusCode": "MAX_ACTIVE_RULES_EXCEEDED"
          },
          {
            "extendedErrorDetails": [
              {
                "extendedErrorCode": "SCREEN_MULTISELECTFIELD_DOESNT_SUPPORT_CHOICE_WITH_USERINPUT"
              },
              {
                "extendedErrorCode": "AUTOLAUNCHED_SUBFLOW_INCOMPATIBLE_FLOWTYPE"
              },
              {
                "extendedErrorCode": "SCREENRULE_MISSING_ACTION"
              }
            ],
            "fields": [
              "string",
              "string",
              "string",
              "string",
              "string",
              "string",
              "string",
              "string"
            ],
            "message": "string",
            "statusCode": "UNKNOWN_EXCEPTION"
          },
          {
            "extendedErrorDetails": [
              {
                "extendedErrorCode": "CUSTOMEVENTS_NOT_ENABLED"
              },
              {
                "extendedErrorCode": "SCREENFIELD_OUTPUTS_NOT_SUPPORTED"
              },
              {
                "extendedErrorCode": "FLOW_INTERVIEW_SAVE_RESULT"
              },
              {
                "extendedErrorCode": "FLOW_INTERVIEW_TYPE_CONVERSION"
              },
              {
                "extendedErrorCode": "PROCESSTYPE_NOT_SUPPORTED"
              },
              {
                "extendedErrorCode": "FLOW_INTERVIEW_RESUME_INTERVIEW"
              },
              {
                "extendedErrorCode": "RULE_MISSING_CONDITION"
              },
              {
                "extendedErrorCode": "OBJECT_CANNOT_BE_DELETED"
              },
              {
                "extendedErrorCode": "ASSIGNMENTITEM_LEFT_DATATYPE_INVALID_FOR_OPERATOR"
              }
            ],
            "fields": [
              "string",
              "string",
              "string",
              "string",
              "string",
              "string",
              "string",
              "string"
            ],
            "message": "string",
            "statusCode": "INVALID_DATA_URI"
          },
          {
            "extendedErrorDetails": [
              {
                "extendedErrorCode": "WORKFLOW_OBJECTTYPE_NOT_FOUND"
              },
              {
                "extendedErrorCode": "SCREENRULE_MISSING_ACTION"
              },
              {
                "extendedErrorCode": "AUTOLAUNCHED_WAIT_NOT_SUPPORTED"
              },
              {
                "extendedErrorCode": "OBJECT_NOT_FOUND"
              },
              {
                "extendedErrorCode": "SETTING_FIELD_VALUE_MAKES_OTHER_FIELD_UNSUPPORTED"
              }
            ],
            "fields": [
              "string",
              "string",
              "string",
              "string",
              "string"
            ],
            "message": "string",
            "statusCode": "INVALID_BATCH_OPERATION"
          },
          {
            "extendedErrorDetails": [
              {
                "extendedErrorCode": "SCREENRULE_MISSING_ACTION"
              },
              {
                "extendedErrorCode": "CONDITION_LOGIC_INVALID"
              },
              {
                "extendedErrorCode": "DATATYPE_INVALID"
              },
              {
                "extendedErrorCode": "ELEMENT_CONNECTS_TO_SELF"
              },
              {
                "extendedErrorCode": "WORKFLOW_OBJECTVARIABLE_AND_OLDOBJECTVARIABLE_REFERENCE_SAME_SOBJECT_VARIABLE"
              },
              {
                "extendedErrorCode": "APEXCALLOUT_OUTPUT_INCOMPATIBLE_DATATYPE"
              },
              {
                "extendedErrorCode": "SUBFLOW_INPUT_REFERENCES_FIELD_ON_SOBJECT_VARIABLE"
              },
              {
                "extendedErrorCode": "SUBFLOW_MISSING_NAME"
              },
              {
                "extendedErrorCode": "FLOW_INTERVIEW_BULK_EXECUTION"
              }
            ],
            "fields": [
              "string",
              "string",
              "string",
              "string",
              "string"
            ],
            "message": "string",
            "statusCode": "ENHANCED_EMAIL_TEMPLATE_COMPILATION_ERROR"
          }
        ],
        "id": "string",
        "mergedRecordIds": [
          "string",
          "string",
          "string",
          "string",
          "string",
          "string",
          "string",
          "string"
        ],
        "success": false,
        "updatedRelatedIds": [
          "string",
          "string",
          "string",
          "string",
          "string",
          "string",
          "string",
          "string",
          "string"
        ]
      },
      {
        "errors": [
          {
            "extendedErrorDetails": [
              {
                "extendedErrorCode": "INVALID_FLOW_INTERVIEW"
              },
              {
                "extendedErrorCode": "CONDITION_INVALID_LEFTOPERAND"
              },
              {
                "extendedErrorCode": "SCREENFIELD_EXTENSION_DUPLICATE_INPUT_PARAM"
              },
              {
                "extendedErrorCode": "DYNAMIC_TYPE_MAPPING_MISSING"
              }
            ],
            "fields": [
              "string",
              "string",
              "string",
              "string",
              "string"
            ],
            "message": "string",
            "statusCode": "UNSPECIFIED_EMAIL_ADDRESS"
          },
          {
            "extendedErrorDetails": [
              {
                "extendedErrorCode": "RECORDLOOKUP_IDASSIGNMENT_VARIABLE_NOT_FOUND"
              },
              {
                "extendedErrorCode": "SUBFLOW_INPUT_REFERENCES_FIELD_ON_SOBJECT_VARIABLE"
              },
              {
                "extendedErrorCode": "VARIABLE_SCALE_NEGATIVE_INTEGER"
              },
              {
                "extendedErrorCode": "AUTOLAUNCHED_CHOICE_NOT_SUPPORTED"
              },
              {
                "extendedErrorCode": "ACTIONCALL_NOT_SUPPORTED_FOR_PROCESSTYPE"
              },
              {
                "extendedErrorCode": "SUBFLOW_INVALID_REFERENCE"
              },
              {
                "extendedErrorCode": "SUBFLOW_INPUT_ELEMENT_INCOMPATIBLE_DATATYPES"
              },
              {
                "extendedErrorCode": "SCREENRULE_ACTION_MISSING_VALUE"
              }
            ],
            "fields": [
              "string",
              "string",
              "string",
              "string",
              "string",
              "string",
              "string",
              "string",
              "string",
              "string"
            ],
            "message": "string",
            "statusCode": "UNKNOWN_EXCEPTION"
          },
          {
            "extendedErrorDetails": [
              {
                "extendedErrorCode": "ASSIGNMENTITEM_ELEMENT_NOT_SUPPORTED"
              },
              {
                "extendedErrorCode": "RECORDFILTER_INVALID_ELEMENT"
              },
              {
                "extendedErrorCode": "SURVEY_CHOICE_NOT_REFERENCED_BY_A_QUESTION"
              },
              {
                "extendedErrorCode": "PROCESSTYPE_ELEMENT_NOT_SUPPORTED"
              },
              {
                "extendedErrorCode": "ASSIGNMENTITEM_INVALID_OPERATOR"
              },
              {
                "extendedErrorCode": "SUBFLOW_INPUT_INVALID_VALUE"
              },
              {
                "extendedErrorCode": "INVALID_SURVEY_VARIABLE_NAME_OR_TYPE"
              },
              {
                "extendedErrorCode": "RECORDFILTER_INVALID_OPERATOR"
              },
              {
                "extendedErrorCode": "INCONSISTENT_VALUE_FOR_DYNAMIC_VALUE_FIELD"
              },
              {
                "extendedErrorCode": "TYPE_MAPPING_NOT_SUPPORTED"
              }
            ],
            "fields": [
              "string",
              "string",
              "string",
              "string",
              "string",
              "string"
            ],
            "message": "string",
            "statusCode": "SALESFORCE_INBOX_TRANSPORT_UNKNOWN_ERROR"
          },
          {
            "extendedErrorDetails": [
              {
                "extendedErrorCode": "FLEXIPAGE_COMPONENT_ATTRIBUTE_MISSING_REQUIRED"
              },
              {
                "extendedErrorCode": "WAITEVENT_MISSING_EVENTTYPE"
              },
              {
                "extendedErrorCode": "SUBFLOW_OUTPUT_MISMATCHED_OBJECTS"
              },
              {
                "extendedErrorCode": "FLEXIPAGE_COMPONENT_ATTRIBUTE_TOO_LONG"
              },
              {
                "extendedErrorCode": "SURVEY_ELEMENT_NEVER_REACHED"
              },
              {
                "extendedErrorCode": "INPUTPARAM_INCOMPATIBLE_WITH_COLLECTION_VARIABLE"
              }
            ],
            "fields": [
              "string",
              "string",
              "string",
              "string",
              "string",
              "string",
              "string",
              "string",
              "string"
            ],
            "message": "string",
            "statusCode": "ENTITY_IS_ARCHIVED"
          },
          {
            "extendedErrorDetails": [
              {
                "extendedErrorCode": "OBJECT_NOT_FOUND"
              },
              {
                "extendedErrorCode": "APEXCALLOUT_INPUT_INCOMPATIBLE_DATATYPE"
              },
              {
                "extendedErrorCode": "OBJECT_CANNOT_BE_DELETED"
              },
              {
                "extendedErrorCode": "ACTIONCALL_NOT_SUPPORTED_FOR_PROCESSTYPE"
              },
              {
                "extendedErrorCode": "ACTIONCALL_NOT_SUPPORTED_FOR_PROCESSTYPE"
              }
            ],
            "fields": [
              "string"
            ],
            "message": "string",
            "statusCode": "EMAIL_TEMPLATE_MERGEFIELD_ERROR"
          },
          {
            "extendedErrorDetails": [
              {
                "extendedErrorCode": "ELEMENT_INVALID_CONNECTOR"
              },
              {
                "extendedErrorCode": "SCREEN_CONTAINS_LIGHTNING_COMPONENT"
              }
            ],
            "fields": [
              "string",
              "string",
              "string",
              "string",
              "string",
              "string",
              "string",
              "string",
              "string",
              "string"
            ],
            "message": "string",
            "statusCode": "PRIVATE_CONTACT_ON_ASSET"
          },
          {
            "extendedErrorDetails": [
              {
                "extendedErrorCode": "FLOW_INTERVIEW_BULK_EXECUTION"
              },
              {
                "extendedErrorCode": "EX_AUTOLAUNCHED_SUBFLOW_INCOMPATIBLE_FLOWTYPE"
              },
              {
                "extendedErrorCode": "FLEXIPAGE_TEMPLATE_INVALID_SWITCH"
              },
              {
                "extendedErrorCode": "SUBFLOW_OUTPUT_VARIABLE_NOT_FOUND_IN_REFERENCEDFLOW"
              },
              {
                "extendedErrorCode": "SCREENFIELD_BOOLEAN_ISREQUIRED_IS_FALSE"
              },
              {
                "extendedErrorCode": "PARAM_DATATYPE_NOT_SUPPORTED"
              },
              {
                "extendedErrorCode": "LOOP_ASSIGNNEXTVALUETO_REFERENCE_NOT_FOUND"
              },
              {
                "extendedErrorCode": "LOOP_ASSIGNNEXTVALUETO_REFERENCE_NOT_FOUND"
              },
              {
                "extendedErrorCode": "ASSIGNMENTITEM_INVALID_DATATYPE_IN_ELEMENT"
              }
            ],
            "fields": [
              "string",
              "string",
              "string",
              "string",
              "string",
              "string",
              "string"
            ],
            "message": "string",
            "statusCode": "EXTERNAL_RESOURCE_FORBIDDEN"
          },
          {
            "extendedErrorDetails": [
              {
                "extendedErrorCode": "APEXCALLOUT_MISSING_CLASSNAME"
              },
              {
                "extendedErrorCode": "GLOBAL_VARIABLE_NOT_SUPPORTED_FOR_PROCESSTYPE"
              },
              {
                "extendedErrorCode": "SETTING_FIELD_MAKES_OTHER_FIELD_UNSUPPORTED"
              },
              {
                "extendedErrorCode": "SUBFLOW_INPUT_VARIABLE_NOT_FOUND_IN_REFERENCEDFLOW"
              },
              {
                "extendedErrorCode": "CONSTANT_INCLUDES_REFERENCES"
              },
              {
                "extendedErrorCode": "SUBFLOW_OUTPUT_MISSING_NAME"
              },
              {
                "extendedErrorCode": "DATATYPE_INVALID"
              },
              {
                "extendedErrorCode": "SCREENRULE_ACTION_MISSING_VALUE"
              }
            ],
            "fields": [
              "string",
              "string",
              "string",
              "string",
              "string",
              "string",
              "string",
              "string"
            ],
            "message": "string",
            "statusCode": "DATACLOUDADDRESS_SERVER_ERROR"
          },
          {
            "extendedErrorDetails": [
              {
                "extendedErrorCode": "OBJECT_NOT_FOUND"
              },
              {
                "extendedErrorCode": "WORKFLOW_OBJECTTYPE_NOT_FOUND"
              },
              {
                "extendedErrorCode": "FLOW_ELEMENT_SCALE_LESS_THAN_ZERO"
              },
              {
                "extendedErrorCode": "FLOW_ELEMENT_SCALE_LESS_THAN_ZERO"
              },
              {
                "extendedErrorCode": "AUTOLAUNCHED_CHOICELOOKUP_NOT_SUPPORTED"
              },
              {
                "extendedErrorCode": "ACTIONCALL_NOT_FOUND_WITH_NAME_AND_TYPE"
              },
              {
                "extendedErrorCode": "SUBFLOW_OUTPUT_MISSING_ASSIGNTOREFERENCE"
              },
              {
                "extendedErrorCode": "LOOP_COLLECTION_NOT_FOUND"
              },
              {
                "extendedErrorCode": "ASSIGNMENTITEM_INCOMPATIBLE_DATATYPES"
              },
              {
                "extendedErrorCode": "OUTPUTPARAM_MISSING_ASSIGNTOREFERENCE"
              }
            ],
            "fields": [
              "string",
              "string",
              "string",
              "string"
            ],
            "message": "string",
            "statusCode": "CHILD_SHARE_FAILS_PARENT"
          }
        ],
        "id": "string",
        "mergedRecordIds": [
          "string",
          "string",
          "string",
          "string",
          "string"
        ],
        "success": true,
        "updatedRelatedIds": [
          "string",
          "string",
          "string",
          "string",
          "string",
          "string"
        ]
      },
      {
        "errors": [
          {
            "extendedErrorDetails": [
              {
                "extendedErrorCode": "SCREENFIELD_EXTENSION_NAME_NOT_SUPPORTED"
              },
              {
                "extendedErrorCode": "FLOW_NAME_USED_IN_OTHER_CLIENT"
              },
              {
                "extendedErrorCode": "SCREENFIELD_OUTPUTS_NOT_SUPPORTED"
              },
              {
                "extendedErrorCode": "CUSTOMEVENT_MISSING_PROCESSMETADATAVALUES"
              }
            ],
            "fields": [
              "string",
              "string",
              "string",
              "string",
              "string",
              "string",
              "string",
              "string",
              "string"
            ],
            "message": "string",
            "statusCode": "TEXT_DATA_OUTSIDE_SUPPORTED_CHARSET"
          },
          {
            "extendedErrorDetails": [
              {
                "extendedErrorCode": "SORT_FIELD_MISSING"
              },
              {
                "extendedErrorCode": "WAITEVENT_RELATIVEALARM_INVALID_OFFSETNUMBER"
              },
              {
                "extendedErrorCode": "FLOW_INTERVIEW_INPUT_VALIDATION"
              },
              {
                "extendedErrorCode": "AUTOLAUNCHED_CHOICELOOKUP_NOT_SUPPORTED"
              },
              {
                "extendedErrorCode": "RECORDFILTER_MISSING_DATATYPE"
              },
              {
                "extendedErrorCode": "SUBFLOW_INPUT_VARIABLE_NOT_FOUND_IN_REFERENCEDFLOW"
              },
              {
                "extendedErrorCode": "SUBFLOW_INPUT_ELEMENT_INCOMPATIBLE_DATATYPES"
              }
            ],
            "fields": [
              "string",
              "string",
              "string",
              "string",
              "string",
              "string",
              "string",
              "string",
              "string",
              "string"
            ],
            "message": "string",
            "statusCode": "MATCH_OPERATION_MISSING_OBJECT_TYPE_ERROR"
          }
        ],
        "id": "string",
        "mergedRecordIds": [
          "string",
          "string",
          "string",
          "string",
          "string"
        ],
        "success": true,
        "updatedRelatedIds": [
          "string",
          "string",
          "string",
          "string",
          "string",
          "string",
          "string",
          "string",
          "string",
          "string"
        ]
      },
      {
        "errors": [
          {
            "extendedErrorDetails": [
              {
                "extendedErrorCode": "FLOW_INVALID_NAME"
              }
            ],
            "fields": [
              "string",
              "string",
              "string",
              "string"
            ],
            "message": "string",
            "statusCode": "RETRIEVE_EXCHANGE_EMAIL_FAILED"
          },
          {
            "extendedErrorDetails": [
              {
                "extendedErrorCode": "SURVEY_MISSING_REQUIRED_VARIABLES"
              },
              {
                "extendedErrorCode": "CUSTOMEVENTS_NOT_ENABLED"
              },
              {
                "extendedErrorCode": "AUTOLAUNCHED_WAIT_NOT_SUPPORTED"
              },
              {
                "extendedErrorCode": "LOOP_COLLECTION_NOT_FOUND"
              },
              {
                "extendedErrorCode": "SURVEY_NONSURVEY_SUBFLOWS"
              },
              {
                "extendedErrorCode": "FIELDASSIGNMENT_INVALID_DATATYPE"
              },
              {
                "extendedErrorCode": "SCREENFIELD_OUTPUTS_NOT_SUPPORTED"
              }
            ],
            "fields": [
              "string",
              "string",
              "string",
              "string",
              "string",
              "string",
              "string"
            ],
            "message": "string",
            "statusCode": "UNKNOWN_TOKEN_ERROR"
          },
          {
            "extendedErrorDetails": [
              {
                "extendedErrorCode": "OBJECT_CANNOT_BE_CREATED"
              },
              {
                "extendedErrorCode": "CONDITION_MISSING_OPERATOR"
              },
              {
                "extendedErrorCode": "SUBFLOW_OUTPUT_REFERENCES_FIELD_ON_SOBJECT_VARIABLE"
              }
            ],
            "fields": [
              "string",
              "string",
              "string",
              "string",
              "string"
            ],
            "message": "string",
            "statusCode": "INVALID_OWNER"
          },
          {
            "extendedErrorDetails": [
              {
                "extendedErrorCode": "EXTERNAL_OBJECT_FIELDS_NOT_SUPPORTED"
              },
              {
                "extendedErrorCode": "INPUTPARAM_MISMATCHED_OBJECTTYPE"
              },
              {
                "extendedErrorCode": "SUBFLOW_MISSING_NAME"
              },
              {
                "extendedErrorCode": "FLOW_SYSTEM_VARIABLE_NOT_SUPPORTED_FOR_TRIGGERTYPE"
              },
              {
                "extendedErrorCode": "VARIABLE_SCALE_EXCEEDS_LIMIT"
              },
              {
                "extendedErrorCode": "INPUTPARAM_INCOMPATIBLE_WITH_NONCOLLECTION_VARIABLE"
              },
              {
                "extendedErrorCode": "ACTIONCALL_NOT_SUPPORTED_FOR_PROCESSTYPE"
              },
              {
                "extendedErrorCode": "LOOP_COLLECTION_ELEMENT_NOT_FOUND"
              },
              {
                "extendedErrorCode": "SORT_ENCRYPTED_FIELDS_NOT_SUPPORTED"
              }
            ],
            "fields": [
              "string",
              "string",
              "string",
              "string",
              "string",
              "string"
            ],
            "message": "string",
            "statusCode": "INVALID_ACCESS_LEVEL"
          }
        ],
        "id": "string",
        "mergedRecordIds": [
          "string",
          "string",
          "string",
          "string",
          "string",
          "string",
          "string",
          "string",
          "string"
        ],
        "success": false,
        "updatedRelatedIds": [
          "string",
          "string",
          "string",
          "string",
          "string",
          "string",
          "string",
          "string",
          "string"
        ]
      },
      {
        "errors": [
          {
            "extendedErrorDetails": [
              {
                "extendedErrorCode": "INPUTPARAM_MISMATCHED_OBJECTTYPE"
              },
              {
                "extendedErrorCode": "CONDITION_BUILDER_MISSING_FLOW_VARIABLE"
              },
              {
                "extendedErrorCode": "FLOW_INTERVIEW_NAVIGATE"
              }
            ],
            "fields": [
              "string",
              "string",
              "string",
              "string",
              "string",
              "string",
              "string",
              "string",
              "string"
            ],
            "message": "string",
            "statusCode": "CANNOT_DEACTIVATE_DIVISION"
          }
        ],
        "id": "string",
        "mergedRecordIds": [
          "string",
          "string",
          "string",
          "string",
          "string",
          "string",
          "string"
        ],
        "success": true,
        "updatedRelatedIds": [
          "string",
          "string",
          "string"
        ]
      },
      {
        "errors": [
          {
            "extendedErrorDetails": [
              {
                "extendedErrorCode": "INVALID_FLOW"
              },
              {
                "extendedErrorCode": "VARIABLE_SCALE_EXCEEDS_LIMIT"
              },
              {
                "extendedErrorCode": "SCREENFIELD_EXTENSION_DUPLICATE_OUTPUT_PARAM"
              },
              {
                "extendedErrorCode": "WORKFLOW_MISSING_PROCESSMETADATAVALUES"
              },
              {
                "extendedErrorCode": "SORT_FIELD_MISSING"
              },
              {
                "extendedErrorCode": "FLOW_SCHEDULE_INFORMATION_INCOMPLETE"
              },
              {
                "extendedErrorCode": "FLOW_INTERVIEW_RANGE_VALIDATION"
              }
            ],
            "fields": [
              "string",
              "string",
              "string",
              "string",
              "string",
              "string"
            ],
            "message": "string",
            "statusCode": "SALESFORCE_INBOX_TRANSPORT_TOKEN_ERROR"
          },
          {
            "extendedErrorDetails": [
              {
                "extendedErrorCode": "CUSTOMEVENT_OBJECTTYPE_NOT_SUPPORTED"
              },
              {
                "extendedErrorCode": "WORKFLOW_PROCESS_METADATAVALUES_MISSING_NAME"
              },
              {
                "extendedErrorCode": "VARIABLE_SCALE_NULL"
              }
            ],
            "fields": [
              "string",
              "string",
              "string",
              "string",
              "string",
              "string",
              "string"
            ],
            "message": "string",
            "statusCode": "DUPLICATE_SENDER_DISPLAY_NAME"
          },
          {
            "extendedErrorDetails": [
              {
                "extendedErrorCode": "SUBFLOW_INPUT_REFERENCES_FIELD_ON_SOBJECT_VARIABLE"
              },
              {
                "extendedErrorCode": "CONDITION_LOGIC_INVALID"
              },
              {
                "extendedErrorCode": "WAITEVENT_OBJECT_NOT_SUPPORTED_FOR_EVENTTYPE"
              },
              {
                "extendedErrorCode": "ASSIGNMENTITEM_MODIFIES_NONVARIABLE"
              },
              {
                "extendedErrorCode": "OBJECT_TYPE_DOES_NOT_EXIST"
              },
              {
                "extendedErrorCode": "SCREENRULE_ACTION_INVALID_ATTRIBUTE"
              },
              {
                "extendedErrorCode": "SCREENRULE_ACTION_MISSING_VALUE"
              }
            ],
            "fields": [
              "string",
              "string",
              "string",
              "string",
              "string",
              "string",
              "string",
              "string",
              "string"
            ],
            "message": "string",
            "statusCode": "CLONE_NOT_SUPPORTED"
          },
          {
            "extendedErrorDetails": [
              {
                "extendedErrorCode": "AUTOLAUNCHED_WAIT_NOT_SUPPORTED"
              },
              {
                "extendedErrorCode": "ASSIGNMENTITEM_NONEXISTENT_REFERENCE"
              },
              {
                "extendedErrorCode": "FLOW_INTERVIEW_NAVIGATE"
              },
              {
                "extendedErrorCode": "ASSIGNMENTITEM_LEFT_DATATYPE_INVALID_FOR_OPERATOR"
              },
              {
                "extendedErrorCode": "SORT_FIELD_MISSING"
              },
              {
                "extendedErrorCode": "INVALID_SURVEY_VARIABLE_NAME_OR_TYPE"
              },
              {
                "extendedErrorCode": "ASSIGNMENTITEM_RIGHT_DATATYPE_INVALID_FOR_OPERATOR"
              },
              {
                "extendedErrorCode": "WORKFLOW_PROCESS_METADATAVALUES_MISSING_NAME"
              },
              {
                "extendedErrorCode": "RECORDFILTER_NON_PRIMITIVE"
              }
            ],
            "fields": [
              "string",
              "string",
              "string",
              "string",
              "string",
              "string",
              "string",
              "string",
              "string",
              "string"
            ],
            "message": "string",
            "statusCode": "ASSIGNEE_TYPE_REQUIRED"
          },
          {
            "extendedErrorDetails": [
              {
                "extendedErrorCode": "SUBFLOW_OUTPUT_VARIABLE_NO_OUTPUT_ACCESS"
              },
              {
                "extendedErrorCode": "OUTPUTPARAM_MISMATCHED_OBJECTTYPE"
              },
              {
                "extendedErrorCode": "SCREENFIELD_EXTENSION_NAME_INVALID"
              },
              {
                "extendedErrorCode": "DATA_TYPE_NOT_SUPPORTED_FOR_PROCESSTYPE"
              },
              {
                "extendedErrorCode": "SURVEY_MISSING_QUESTION_OR_SUBFLOW"
              },
              {
                "extendedErrorCode": "TRIGGER_TYPE_CONTEXT_OBJECT_NOT_SUPPORTED"
              },
              {
                "extendedErrorCode": "SETTING_FIELD_MAKES_OTHER_FIELD_UNSUPPORTED"
              },
              {
                "extendedErrorCode": "SCREENRULE_ACTION_MISSING_ATTRIBUTE"
              },
              {
                "extendedErrorCode": "APEXCALLOUT_INVALID"
              }
            ],
            "fields": [
              "string",
              "string",
              "string",
              "string",
              "string",
              "string"
            ],
            "message": "string",
            "statusCode": "INVALID_SAVE_AS_ACTIVITY_FLAG"
          },
          {
            "extendedErrorDetails": [
              {
                "extendedErrorCode": "CHOICELOOKUP_DATATYPE_INCOMPATIBLE_WITH_CHOICEFIELD"
              },
              {
                "extendedErrorCode": "RECORDFILTER_MULTIPLE_QUERIES_SAME_FIELD"
              }
            ],
            "fields": [
              "string",
              "string",
              "string",
              "string",
              "string",
              "string",
              "string",
              "string",
              "string",
              "string"
            ],
            "message": "string",
            "statusCode": "DUPLICATE_CASE_SOLUTION"
          },
          {
            "extendedErrorDetails": [
              {
                "extendedErrorCode": "SCREENFIELD_EXTENSION_DUPLICATE_INPUT_PARAM"
              },
              {
                "extendedErrorCode": "AUTOLAUNCHED_SCREEN_NOT_SUPPORTED"
              },
              {
                "extendedErrorCode": "SCREEN_MISSING_FOOTER_AND_LIGHTNING_COMPONENT"
              },
              {
                "extendedErrorCode": "FIELD_NOT_FOUND"
              },
              {
                "extendedErrorCode": "SCREENRULE_VISIBILITY_NOT_SUPPORTED_IN_ORG"
              },
              {
                "extendedErrorCode": "WAITEVENT_INPUT_NOT_SUPPORTED_FOR_EVENTTYPE"
              },
              {
                "extendedErrorCode": "SETTING_FIELD_VALUE_MAKES_OTHER_FIELD_UNSUPPORTED"
              }
            ],
            "fields": [
              "string",
              "string",
              "string",
              "string",
              "string"
            ],
            "message": "string",
            "statusCode": "INVALID_KEY_FIELD_INPUT"
          },
          {
            "extendedErrorDetails": [
              {
                "extendedErrorCode": "VARIABLE_SCALE_NEGATIVE_INTEGER"
              }
            ],
            "fields": [
              "string",
              "string",
              "string",
              "string",
              "string",
              "string",
              "string",
              "string",
              "string",
              "string"
            ],
            "message": "string",
            "statusCode": "INVALID_CREDIT_CARD_INFO"
          },
          {
            "extendedErrorDetails": [
              {
                "extendedErrorCode": "ACTIONCALL_MISSING_REQUIRED_PARAM"
              },
              {
                "extendedErrorCode": "ASSIGNMENTITEM_INCOMPATIBLE_DATATYPES"
              },
              {
                "extendedErrorCode": "ASSIGNMENTITEM_FIELD_INVALID_DATATYPE"
              }
            ],
            "fields": [
              "string",
              "string",
              "string",
              "string"
            ],
            "message": "string",
            "statusCode": "METADATA_FIELD_UPDATE_ERROR"
          },
          {
            "extendedErrorDetails": [
              {
                "extendedErrorCode": "VISIBILITY_RULE_EXCEEDS_CONDITION_LIMIT"
              },
              {
                "extendedErrorCode": "CONDITION_RIGHTOPERAND_NULL"
              },
              {
                "extendedErrorCode": "FLOW_REFERENCES_APEX_CLASS_NOT_IN_SAME_PACKAGE"
              },
              {
                "extendedErrorCode": "CHOICEFIELD_DEFAULT_CHOICE_NOT_FOUND"
              },
              {
                "extendedErrorCode": "FLEXIPAGE_COMPONENT_ATTRIBUTE_EXPRESSION_EXCEPTION"
              }
            ],
            "fields": [
              "string",
              "string",
              "string",
              "string",
              "string",
              "string"
            ],
            "message": "string",
            "statusCode": "PACKAGING_API_UNINSTALL_FAILED"
          }
        ],
        "id": "string",
        "mergedRecordIds": [
          "string",
          "string"
        ],
        "success": true,
        "updatedRelatedIds": [
          "string",
          "string",
          "string",
          "string",
          "string",
          "string"
        ]
      },
      {
        "errors": [
          {
            "extendedErrorDetails": [
              {
                "extendedErrorCode": "VISIBILITY_RULE_NOT_SUPPORTED_FOR_API_VERSION"
              },
              {
                "extendedErrorCode": "FLOW_INVALID_NAME"
              },
              {
                "extendedErrorCode": "SORT_FIELD_MISSING"
              },
              {
                "extendedErrorCode": "SUBFLOW_OUTPUT_MULTIPLE_ASSIGNMENTS_TO_ONE_VARIABLE"
              },
              {
                "extendedErrorCode": "SCREEN_MISSING_FOOTER_AND_LIGHTNING_COMPONENT"
              }
            ],
            "fields": [
              "string",
              "string",
              "string",
              "string",
              "string",
              "string",
              "string",
              "string",
              "string"
            ],
            "message": "string",
            "statusCode": "EMAIL_TEMPLATE_PROCESSING_ERROR"
          },
          {
            "extendedErrorDetails": [
              {
                "extendedErrorCode": "ASSIGNMENTITEM_NONEXISTENT_REFERENCE"
              },
              {
                "extendedErrorCode": "RECORDFILTER_INVALID_REFERENCE"
              },
              {
                "extendedErrorCode": "OBJECT_CANNOT_BE_DELETED"
              },
              {
                "extendedErrorCode": "TYPE_MAPPING_NOT_SUPPORTED"
              },
              {
                "extendedErrorCode": "SOBJECT_ELEMENT_INCOMPATIBLE_DATATYPE"
              },
              {
                "extendedErrorCode": "FIELDSERVICE_UNSUPPORTED_FIELD_TYPE"
              },
              {
                "extendedErrorCode": "SURVEY_MISSING_QUESTION_OR_SUBFLOW"
              },
              {
                "extendedErrorCode": "CONDITION_REFERENCED_ELEMENT_NOT_FOUND"
              },
              {
                "extendedErrorCode": "WAITEVENT_DUPLICATE_INPUT_PARAM"
              }
            ],
            "fields": [
              "string",
              "string"
            ],
            "message": "string",
            "statusCode": "EXCHANGE_WEB_SERVICES_URL_INVALID"
          },
          {
            "extendedErrorDetails": [
              {
                "extendedErrorCode": "RECORDFILTER_INVALID_DATATYPE"
              }
            ],
            "fields": [
              "string",
              "string",
              "string",
              "string",
              "string"
            ],
            "message": "string",
            "statusCode": "IP_RANGE_LIMIT_EXCEEDED"
          },
          {
            "extendedErrorDetails": [
              {
                "extendedErrorCode": "NON_EXPOSED_COMPONENT_IN_FLOW"
              },
              {
                "extendedErrorCode": "TYPE_MAPPING_NOT_SUPPORTED_FOR_PROCESS_TYPE"
              }
            ],
            "fields": [
              "string",
              "string",
              "string",
              "string",
              "string",
              "string",
              "string"
            ],
            "message": "string",
            "statusCode": "WEBLINK_SIZE_LIMIT_EXCEEDED"
          }
        ],
        "id": "string",
        "mergedRecordIds": [
          "string"
        ],
        "success": true,
        "updatedRelatedIds": [
          "string",
          "string",
          "string",
          "string",
          "string",
          "string",
          "string",
          "string",
          "string",
          "string"
        ]
      }
    ]
  }
}