{
  "retrieveResponse": {
    "result": [
      {
        "type": "string",
        "fieldsToNull": [
          "string",
          "string",
          "string",
          "string",
          "string",
          "string",
          "string"
        ],
        "Id": "string"
      },
      {
        "type": "string",
        "fieldsToNull": [
          "string",
          "string",
          "string",
          "string",
          "string",
          "string"
        ],
        "Id": "string"
      },
      {
        "type": "string",
        "fieldsToNull": [
          "string",
          "string",
          "string",
          "string",
          "string",
          "string"
        ],
        "Id": "string"
      },
      {
        "type": "string",
        "fieldsToNull": [
          "string",
          "string",
          "string",
          "string",
          "string",
          "string",
          "string",
          "string"
        ],
        "Id": "string"
      },
      {
        "type": "string",
        "fieldsToNull": [
          "string",
          "string",
          "string",
          "string",
          "string",
          "string",
          "string",
          "string"
        ],
        "Id": "string"
      }
    ]
  }
}