{
  "processResponse": {
    "result": [
      {
        "actorIds": [
          "string"
        ],
        "entityId": "string",
        "errors": [
          {
            "extendedErrorDetails": [
              {
                "extendedErrorCode": "OBJECT_NOT_FOUND"
              },
              {
                "extendedErrorCode": "APEXCALLOUT_INPUT_INCOMPATIBLE_DATATYPE"
              },
              {
                "extendedErrorCode": "FLEXIPAGE_TEMPLATE_INVALID_SWITCH"
              },
              {
                "extendedErrorCode": "ASSIGNMENTITEM_FIELD_INVALID_DATATYPE"
              },
              {
                "extendedErrorCode": "LOOP_COLLECTION_NOT_FOUND"
              },
              {
                "extendedErrorCode": "VARIABLE_FIELD_NOT_SUPPORTED_FOR_DATATYPE"
              },
              {
                "extendedErrorCode": "FLOW_STAGE_INCLUDES_REFERENCES"
              },
              {
                "extendedErrorCode": "CHOICE_DATATYPE_INCOMPATIBLE_WITH_CHOICEFIELD"
              },
              {
                "extendedErrorCode": "SORT_ORDER_MISSING"
              },
              {
                "extendedErrorCode": "AUTOLAUNCHED_SUBFLOW_INCOMPATIBLE_FLOWTYPE"
              }
            ],
            "fields": [
              "string",
              "string",
              "string",
              "string",
              "string",
              "string",
              "string",
              "string",
              "string",
              "string"
            ],
            "message": "string",
            "statusCode": "EMPTY_SCONTROL_FILE_NAME"
          }
        ],
        "instanceId": "string",
        "instanceStatus": "string",
        "newWorkitemIds": [
          "string",
          "string",
          "string",
          "string",
          "string",
          "string"
        ],
        "success": false
      }
    ]
  }
}