{
  "describeGlobalResponse": {
    "result": {
      "encoding": "string",
      "maxBatchSize": 7,
      "sobjects": [
        {
          "activateable": true,
          "createable": true,
          "custom": true,
          "customSetting": false,
          "dataTranslationEnabled": true,
          "deepCloneable": false,
          "deletable": true,
          "deprecatedAndHidden": false,
          "feedEnabled": false,
          "hasSubtypes": false,
          "idEnabled": true,
          "isInterface": true,
          "isSubtype": true,
          "keyPrefix": "string",
          "label": "string",
          "labelPlural": "string",
          "layoutable": false,
          "mergeable": false,
          "mruEnabled": false,
          "name": "string",
          "queryable": true,
          "replicateable": true,
          "retrieveable": false,
          "searchable": true,
          "triggerable": false,
          "undeletable": true,
          "updateable": false
        },
        {
          "activateable": true,
          "createable": true,
          "custom": true,
          "customSetting": false,
          "dataTranslationEnabled": true,
          "deepCloneable": true,
          "deletable": true,
          "deprecatedAndHidden": false,
          "feedEnabled": true,
          "hasSubtypes": false,
          "idEnabled": false,
          "isInterface": true,
          "isSubtype": true,
          "keyPrefix": "string",
          "label": "string",
          "labelPlural": "string",
          "layoutable": true,
          "mergeable": true,
          "mruEnabled": true,
          "name": "string",
          "queryable": false,
          "replicateable": false,
          "retrieveable": true,
          "searchable": true,
          "triggerable": true,
          "undeletable": false,
          "updateable": false
        }
      ]
    }
  }
}