{
  "actions": [
    {
      "name": "postPerformQuickActions",
      "protocol": "REST",
      "method": "POST",
      "entitypath": "{base_path}/{version}/performQuickActions?{query}",
      "requestSchema": "schema.json",
      "responseSchema": "schema.json",
      "timeout": 0,
      "sendEmpty": false,
      "requestDatatype": "JSON",
      "responseDatatype": "JSON",
      "headers": {},
      "responseObjects": [
        {
          "type": "default",
          "key": "",
          "mockFile": "mockdatafiles/postPerformQuickActions-default.json"
        }
      ]
    },
    {
      "name": "postDescribeQuickActions",
      "protocol": "REST",
      "method": "POST",
      "entitypath": "{base_path}/{version}/describeQuickActions?{query}",
      "requestSchema": "schema.json",
      "responseSchema": "schema.json",
      "timeout": 0,
      "sendEmpty": false,
      "requestDatatype": "JSON",
      "responseDatatype": "JSON",
      "headers": {},
      "responseObjects": [
        {
          "type": "default",
          "key": "",
          "mockFile": "mockdatafiles/postDescribeQuickActions-default.json"
        }
      ]
    },
    {
      "name": "postDescribeQuickActionsForRecordType",
      "protocol": "REST",
      "method": "POST",
      "entitypath": "{base_path}/{version}/describeQuickActionsForRecordType?{query}",
      "requestSchema": "schema.json",
      "responseSchema": "schema.json",
      "timeout": 0,
      "sendEmpty": false,
      "requestDatatype": "JSON",
      "responseDatatype": "JSON",
      "headers": {},
      "responseObjects": [
        {
          "type": "default",
          "key": "",
          "mockFile": "mockdatafiles/postDescribeQuickActionsForRecordType-default.json"
        }
      ]
    },
    {
      "name": "postDescribeAvailableQuickActions",
      "protocol": "REST",
      "method": "POST",
      "entitypath": "{base_path}/{version}/describeAvailableQuickActions?{query}",
      "requestSchema": "schema.json",
      "responseSchema": "schema.json",
      "timeout": 0,
      "sendEmpty": false,
      "requestDatatype": "JSON",
      "responseDatatype": "JSON",
      "headers": {},
      "responseObjects": [
        {
          "type": "default",
          "key": "",
          "mockFile": "mockdatafiles/postDescribeAvailableQuickActions-default.json"
        }
      ]
    },
    {
      "name": "postRetrieveQuickActionTemplates",
      "protocol": "REST",
      "method": "POST",
      "entitypath": "{base_path}/{version}/retrieveQuickActionTemplates?{query}",
      "requestSchema": "schema.json",
      "responseSchema": "schema.json",
      "timeout": 0,
      "sendEmpty": false,
      "requestDatatype": "JSON",
      "responseDatatype": "JSON",
      "headers": {},
      "responseObjects": [
        {
          "type": "default",
          "key": "",
          "mockFile": "mockdatafiles/postRetrieveQuickActionTemplates-default.json"
        }
      ]
    },
    {
      "name": "postRetrieveMassQuickActionTemplates",
      "protocol": "REST",
      "method": "POST",
      "entitypath": "{base_path}/{version}/retrieveMassQuickActionTemplates?{query}",
      "requestSchema": "schema.json",
      "responseSchema": "schema.json",
      "timeout": 0,
      "sendEmpty": false,
      "requestDatatype": "JSON",
      "responseDatatype": "JSON",
      "headers": {},
      "responseObjects": [
        {
          "type": "default",
          "key": "",
          "mockFile": "mockdatafiles/postRetrieveMassQuickActionTemplates-default.json"
        }
      ]
    }
  ]
}