{
  "$id": "schema.json",
  "type": "object",
  "schema": "http://json-schema.org/draft-07/schema#",
  "translate": true,
  "dynamicfields": true,
  "properties": {
    "ph_request_type": {
      "type": "string",
      "description": "type of request (internal to adapter)",
      "default": "postDescribeKnowledgeSettings",
      "enum": [
        "postDescribeKnowledgeSettings",
        "postDescribeSearchableEntities",
        "postDescribeSearchScopeOrder",
        "postDescribeSoqlListViews",
        "postExecuteListView",
        "postDescribeTabs",
        "postDescribeAllTabs",
        "postSetPassword",
        "postChangeOwnPassword",
        "postResetPassword",
        "postGetUserInfo"
      ],
      "external_name": "ph_request_type"
    },
    "body": {
      "type": "object",
      "description": "",
      "parse": false,
      "encode": false,
      "encrypt": {
        "type": "AES",
        "key": ""
      },
      "external_name": "Body"
    }
  },
  "definitions": {}
}