{
  "describeGlobalThemeResponse": {
    "result": {
      "global": {
        "encoding": "string",
        "maxBatchSize": 9,
        "sobjects": [
          {
            "activateable": false,
            "createable": false,
            "custom": false,
            "customSetting": false,
            "dataTranslationEnabled": false,
            "deepCloneable": false,
            "deletable": false,
            "deprecatedAndHidden": false,
            "feedEnabled": true,
            "hasSubtypes": true,
            "idEnabled": true,
            "isInterface": true,
            "isSubtype": true,
            "keyPrefix": "string",
            "label": "string",
            "labelPlural": "string",
            "layoutable": false,
            "mergeable": false,
            "mruEnabled": true,
            "name": "string",
            "queryable": false,
            "replicateable": true,
            "retrieveable": true,
            "searchable": true,
            "triggerable": true,
            "undeletable": false,
            "updateable": false
          }
        ]
      },
      "theme": {
        "themeItems": [
          {
            "colors": [
              {
                "color": "string",
                "context": "string",
                "theme": "string"
              },
              {
                "color": "string",
                "context": "string",
                "theme": "string"
              },
              {
                "color": "string",
                "context": "string",
                "theme": "string"
              },
              {
                "color": "string",
                "context": "string",
                "theme": "string"
              },
              {
                "color": "string",
                "context": "string",
                "theme": "string"
              }
            ],
            "icons": [
              {
                "contentType": "string",
                "height": 1,
                "theme": "string",
                "url": "string",
                "width": 5
              },
              {
                "contentType": "string",
                "height": 8,
                "theme": "string",
                "url": "string",
                "width": 8
              }
            ],
            "name": "string"
          },
          {
            "colors": [
              {
                "color": "string",
                "context": "string",
                "theme": "string"
              },
              {
                "color": "string",
                "context": "string",
                "theme": "string"
              },
              {
                "color": "string",
                "context": "string",
                "theme": "string"
              },
              {
                "color": "string",
                "context": "string",
                "theme": "string"
              },
              {
                "color": "string",
                "context": "string",
                "theme": "string"
              },
              {
                "color": "string",
                "context": "string",
                "theme": "string"
              },
              {
                "color": "string",
                "context": "string",
                "theme": "string"
              },
              {
                "color": "string",
                "context": "string",
                "theme": "string"
              },
              {
                "color": "string",
                "context": "string",
                "theme": "string"
              }
            ],
            "icons": [
              {
                "contentType": "string",
                "height": 4,
                "theme": "string",
                "url": "string",
                "width": 1
              },
              {
                "contentType": "string",
                "height": 7,
                "theme": "string",
                "url": "string",
                "width": 5
              },
              {
                "contentType": "string",
                "height": 8,
                "theme": "string",
                "url": "string",
                "width": 1
              },
              {
                "contentType": "string",
                "height": 5,
                "theme": "string",
                "url": "string",
                "width": 8
              },
              {
                "contentType": "string",
                "height": 9,
                "theme": "string",
                "url": "string",
                "width": 6
              },
              {
                "contentType": "string",
                "height": 7,
                "theme": "string",
                "url": "string",
                "width": 7
              }
            ],
            "name": "string"
          },
          {
            "colors": [
              {
                "color": "string",
                "context": "string",
                "theme": "string"
              },
              {
                "color": "string",
                "context": "string",
                "theme": "string"
              },
              {
                "color": "string",
                "context": "string",
                "theme": "string"
              },
              {
                "color": "string",
                "context": "string",
                "theme": "string"
              },
              {
                "color": "string",
                "context": "string",
                "theme": "string"
              },
              {
                "color": "string",
                "context": "string",
                "theme": "string"
              },
              {
                "color": "string",
                "context": "string",
                "theme": "string"
              },
              {
                "color": "string",
                "context": "string",
                "theme": "string"
              }
            ],
            "icons": [
              {
                "contentType": "string",
                "height": 5,
                "theme": "string",
                "url": "string",
                "width": 9
              },
              {
                "contentType": "string",
                "height": 3,
                "theme": "string",
                "url": "string",
                "width": 6
              },
              {
                "contentType": "string",
                "height": 4,
                "theme": "string",
                "url": "string",
                "width": 3
              },
              {
                "contentType": "string",
                "height": 6,
                "theme": "string",
                "url": "string",
                "width": 5
              },
              {
                "contentType": "string",
                "height": 8,
                "theme": "string",
                "url": "string",
                "width": 9
              },
              {
                "contentType": "string",
                "height": 8,
                "theme": "string",
                "url": "string",
                "width": 6
              },
              {
                "contentType": "string",
                "height": 10,
                "theme": "string",
                "url": "string",
                "width": 8
              },
              {
                "contentType": "string",
                "height": 3,
                "theme": "string",
                "url": "string",
                "width": 2
              },
              {
                "contentType": "string",
                "height": 5,
                "theme": "string",
                "url": "string",
                "width": 10
              },
              {
                "contentType": "string",
                "height": 6,
                "theme": "string",
                "url": "string",
                "width": 3
              }
            ],
            "name": "string"
          },
          {
            "colors": [
              {
                "color": "string",
                "context": "string",
                "theme": "string"
              },
              {
                "color": "string",
                "context": "string",
                "theme": "string"
              }
            ],
            "icons": [
              {
                "contentType": "string",
                "height": 2,
                "theme": "string",
                "url": "string",
                "width": 5
              },
              {
                "contentType": "string",
                "height": 8,
                "theme": "string",
                "url": "string",
                "width": 4
              },
              {
                "contentType": "string",
                "height": 10,
                "theme": "string",
                "url": "string",
                "width": 10
              },
              {
                "contentType": "string",
                "height": 1,
                "theme": "string",
                "url": "string",
                "width": 6
              },
              {
                "contentType": "string",
                "height": 2,
                "theme": "string",
                "url": "string",
                "width": 3
              },
              {
                "contentType": "string",
                "height": 9,
                "theme": "string",
                "url": "string",
                "width": 10
              },
              {
                "contentType": "string",
                "height": 9,
                "theme": "string",
                "url": "string",
                "width": 4
              },
              {
                "contentType": "string",
                "height": 7,
                "theme": "string",
                "url": "string",
                "width": 8
              },
              {
                "contentType": "string",
                "height": 9,
                "theme": "string",
                "url": "string",
                "width": 6
              },
              {
                "contentType": "string",
                "height": 3,
                "theme": "string",
                "url": "string",
                "width": 6
              }
            ],
            "name": "string"
          },
          {
            "colors": [
              {
                "color": "string",
                "context": "string",
                "theme": "string"
              },
              {
                "color": "string",
                "context": "string",
                "theme": "string"
              },
              {
                "color": "string",
                "context": "string",
                "theme": "string"
              },
              {
                "color": "string",
                "context": "string",
                "theme": "string"
              },
              {
                "color": "string",
                "context": "string",
                "theme": "string"
              },
              {
                "color": "string",
                "context": "string",
                "theme": "string"
              }
            ],
            "icons": [
              {
                "contentType": "string",
                "height": 8,
                "theme": "string",
                "url": "string",
                "width": 7
              },
              {
                "contentType": "string",
                "height": 1,
                "theme": "string",
                "url": "string",
                "width": 9
              },
              {
                "contentType": "string",
                "height": 6,
                "theme": "string",
                "url": "string",
                "width": 9
              },
              {
                "contentType": "string",
                "height": 9,
                "theme": "string",
                "url": "string",
                "width": 1
              },
              {
                "contentType": "string",
                "height": 2,
                "theme": "string",
                "url": "string",
                "width": 2
              },
              {
                "contentType": "string",
                "height": 4,
                "theme": "string",
                "url": "string",
                "width": 7
              },
              {
                "contentType": "string",
                "height": 5,
                "theme": "string",
                "url": "string",
                "width": 8
              },
              {
                "contentType": "string",
                "height": 1,
                "theme": "string",
                "url": "string",
                "width": 8
              },
              {
                "contentType": "string",
                "height": 9,
                "theme": "string",
                "url": "string",
                "width": 9
              },
              {
                "contentType": "string",
                "height": 2,
                "theme": "string",
                "url": "string",
                "width": 9
              }
            ],
            "name": "string"
          }
        ]
      }
    }
  }
}